('C:\\Users\\Faheem Dev\\Desktop\\Git\\basicEncoder\\dist\\RootCryptor.exe',
 True,
 False,
 False,
 'C:\\Users\\Faheem '
 'Dev\\Desktop\\Git\\basicEncoder\\.venv\\Lib\\site-packages\\PyInstaller\\bootloader\\images\\icon-console.ico',
 None,
 False,
 False,
 b'<?xml version="1.0" encoding="UTF-8" standalone="yes"?>\n<assembly xmlns='
 b'"urn:schemas-microsoft-com:asm.v1" manifestVersion="1.0">\n  <trustInfo x'
 b'mlns="urn:schemas-microsoft-com:asm.v3">\n    <security>\n      <requested'
 b'Privileges>\n        <requestedExecutionLevel level="asInvoker" uiAccess='
 b'"false"/>\n      </requestedPrivileges>\n    </security>\n  </trustInfo>\n  '
 b'<compatibility xmlns="urn:schemas-microsoft-com:compatibility.v1">\n    <'
 b'application>\n      <supportedOS Id="{e2011457-1546-43c5-a5fe-008deee3d3f'
 b'0}"/>\n      <supportedOS Id="{35138b9a-5d96-4fbd-8e2d-a2440225f93a}"/>\n '
 b'     <supportedOS Id="{4a2f28e3-53b9-4441-ba9c-d69d4a4a6e38}"/>\n      <s'
 b'upportedOS Id="{1f676c76-80e1-4239-95bb-83d0f6d0da78}"/>\n      <supporte'
 b'dOS Id="{8e0f7a12-bfb3-4fe8-b9a5-48fd50a15a9a}"/>\n    </application>\n  <'
 b'/compatibility>\n  <application xmlns="urn:schemas-microsoft-com:asm.v3">'
 b'\n    <windowsSettings>\n      <longPathAware xmlns="http://schemas.micros'
 b'oft.com/SMI/2016/WindowsSettings">true</longPathAware>\n    </windowsSett'
 b'ings>\n  </application>\n  <dependency>\n    <dependentAssembly>\n      <ass'
 b'emblyIdentity type="win32" name="Microsoft.Windows.Common-Controls" version='
 b'"6.0.0.0" processorArchitecture="*" publicKeyToken="6595b64144ccf1df" langua'
 b'ge="*"/>\n    </dependentAssembly>\n  </dependency>\n</assembly>',
 True,
 False,
 None,
 None,
 None,
 'C:\\Users\\Faheem '
 'Dev\\Desktop\\Git\\basicEncoder\\build\\RootCryptor\\RootCryptor.pkg',
 [('pyi-contents-directory _internal', '', 'OPTION'),
  ('PYZ-00.pyz',
   'C:\\Users\\Faheem '
   'Dev\\Desktop\\Git\\basicEncoder\\build\\RootCryptor\\PYZ-00.pyz',
   'PYZ'),
  ('struct',
   'C:\\Users\\Faheem '
   'Dev\\Desktop\\Git\\basicEncoder\\build\\RootCryptor\\localpycs\\struct.pyc',
   'PYMODULE'),
  ('pyimod01_archive',
   'C:\\Users\\Faheem '
   'Dev\\Desktop\\Git\\basicEncoder\\build\\RootCryptor\\localpycs\\pyimod01_archive.pyc',
   'PYMODULE'),
  ('pyimod02_importers',
   'C:\\Users\\Faheem '
   'Dev\\Desktop\\Git\\basicEncoder\\build\\RootCryptor\\localpycs\\pyimod02_importers.pyc',
   'PYMODULE'),
  ('pyimod03_ctypes',
   'C:\\Users\\Faheem '
   'Dev\\Desktop\\Git\\basicEncoder\\build\\RootCryptor\\localpycs\\pyimod03_ctypes.pyc',
   'PYMODULE'),
  ('pyimod04_pywin32',
   'C:\\Users\\Faheem '
   'Dev\\Desktop\\Git\\basicEncoder\\build\\RootCryptor\\localpycs\\pyimod04_pywin32.pyc',
   'PYMODULE'),
  ('pyiboot01_bootstrap',
   'C:\\Users\\Faheem '
   'Dev\\Desktop\\Git\\basicEncoder\\.venv\\Lib\\site-packages\\PyInstaller\\loader\\pyiboot01_bootstrap.py',
   'PYSOURCE'),
  ('pyi_rth_inspect',
   'C:\\Users\\Faheem '
   'Dev\\Desktop\\Git\\basicEncoder\\.venv\\Lib\\site-packages\\PyInstaller\\hooks\\rthooks\\pyi_rth_inspect.py',
   'PYSOURCE'),
  ('pyi_rth_pkgutil',
   'C:\\Users\\Faheem '
   'Dev\\Desktop\\Git\\basicEncoder\\.venv\\Lib\\site-packages\\PyInstaller\\hooks\\rthooks\\pyi_rth_pkgutil.py',
   'PYSOURCE'),
  ('pyi_rth_multiprocessing',
   'C:\\Users\\Faheem '
   'Dev\\Desktop\\Git\\basicEncoder\\.venv\\Lib\\site-packages\\PyInstaller\\hooks\\rthooks\\pyi_rth_multiprocessing.py',
   'PYSOURCE'),
  ('pyi_rth_setuptools',
   'C:\\Users\\Faheem '
   'Dev\\Desktop\\Git\\basicEncoder\\.venv\\Lib\\site-packages\\PyInstaller\\hooks\\rthooks\\pyi_rth_setuptools.py',
   'PYSOURCE'),
  ('pyi_rth_pkgres',
   'C:\\Users\\Faheem '
   'Dev\\Desktop\\Git\\basicEncoder\\.venv\\Lib\\site-packages\\PyInstaller\\hooks\\rthooks\\pyi_rth_pkgres.py',
   'PYSOURCE'),
  ('RootCryptor',
   'C:\\Users\\Faheem Dev\\Desktop\\Git\\basicEncoder\\RootCryptor.py',
   'PYSOURCE'),
  ('python312.dll',
   'C:\\Program '
   'Files\\WindowsApps\\PythonSoftwareFoundation.Python.3.12_3.12.1520.0_x64__qbz5n2kfra8p0\\python312.dll',
   'BINARY'),
  ('Crypto\\Hash\\_SHA224.pyd',
   'C:\\Users\\Faheem '
   'Dev\\Desktop\\Git\\basicEncoder\\.venv\\Lib\\site-packages\\Crypto\\Hash\\_SHA224.pyd',
   'BINARY'),
  ('Crypto\\Util\\_strxor.pyd',
   'C:\\Users\\Faheem '
   'Dev\\Desktop\\Git\\basicEncoder\\.venv\\Lib\\site-packages\\Crypto\\Util\\_strxor.pyd',
   'BINARY'),
  ('Crypto\\PublicKey\\_ed448.pyd',
   'C:\\Users\\Faheem '
   'Dev\\Desktop\\Git\\basicEncoder\\.venv\\Lib\\site-packages\\Crypto\\PublicKey\\_ed448.pyd',
   'BINARY'),
  ('Crypto\\Cipher\\_raw_ofb.pyd',
   'C:\\Users\\Faheem '
   'Dev\\Desktop\\Git\\basicEncoder\\.venv\\Lib\\site-packages\\Crypto\\Cipher\\_raw_ofb.pyd',
   'BINARY'),
  ('Crypto\\Cipher\\_pkcs1_decode.pyd',
   'C:\\Users\\Faheem '
   'Dev\\Desktop\\Git\\basicEncoder\\.venv\\Lib\\site-packages\\Crypto\\Cipher\\_pkcs1_decode.pyd',
   'BINARY'),
  ('Crypto\\Cipher\\_raw_ecb.pyd',
   'C:\\Users\\Faheem '
   'Dev\\Desktop\\Git\\basicEncoder\\.venv\\Lib\\site-packages\\Crypto\\Cipher\\_raw_ecb.pyd',
   'BINARY'),
  ('Crypto\\PublicKey\\_x25519.pyd',
   'C:\\Users\\Faheem '
   'Dev\\Desktop\\Git\\basicEncoder\\.venv\\Lib\\site-packages\\Crypto\\PublicKey\\_x25519.pyd',
   'BINARY'),
  ('Crypto\\Hash\\_keccak.pyd',
   'C:\\Users\\Faheem '
   'Dev\\Desktop\\Git\\basicEncoder\\.venv\\Lib\\site-packages\\Crypto\\Hash\\_keccak.pyd',
   'BINARY'),
  ('Crypto\\Cipher\\_raw_des3.pyd',
   'C:\\Users\\Faheem '
   'Dev\\Desktop\\Git\\basicEncoder\\.venv\\Lib\\site-packages\\Crypto\\Cipher\\_raw_des3.pyd',
   'BINARY'),
  ('Crypto\\Cipher\\_raw_cbc.pyd',
   'C:\\Users\\Faheem '
   'Dev\\Desktop\\Git\\basicEncoder\\.venv\\Lib\\site-packages\\Crypto\\Cipher\\_raw_cbc.pyd',
   'BINARY'),
  ('Crypto\\Hash\\_MD5.pyd',
   'C:\\Users\\Faheem '
   'Dev\\Desktop\\Git\\basicEncoder\\.venv\\Lib\\site-packages\\Crypto\\Hash\\_MD5.pyd',
   'BINARY'),
  ('Crypto\\Hash\\_ghash_portable.pyd',
   'C:\\Users\\Faheem '
   'Dev\\Desktop\\Git\\basicEncoder\\.venv\\Lib\\site-packages\\Crypto\\Hash\\_ghash_portable.pyd',
   'BINARY'),
  ('Crypto\\Cipher\\_raw_arc2.pyd',
   'C:\\Users\\Faheem '
   'Dev\\Desktop\\Git\\basicEncoder\\.venv\\Lib\\site-packages\\Crypto\\Cipher\\_raw_arc2.pyd',
   'BINARY'),
  ('Crypto\\Cipher\\_raw_ctr.pyd',
   'C:\\Users\\Faheem '
   'Dev\\Desktop\\Git\\basicEncoder\\.venv\\Lib\\site-packages\\Crypto\\Cipher\\_raw_ctr.pyd',
   'BINARY'),
  ('Crypto\\Hash\\_SHA512.pyd',
   'C:\\Users\\Faheem '
   'Dev\\Desktop\\Git\\basicEncoder\\.venv\\Lib\\site-packages\\Crypto\\Hash\\_SHA512.pyd',
   'BINARY'),
  ('Crypto\\Protocol\\_scrypt.pyd',
   'C:\\Users\\Faheem '
   'Dev\\Desktop\\Git\\basicEncoder\\.venv\\Lib\\site-packages\\Crypto\\Protocol\\_scrypt.pyd',
   'BINARY'),
  ('Crypto\\Hash\\_BLAKE2b.pyd',
   'C:\\Users\\Faheem '
   'Dev\\Desktop\\Git\\basicEncoder\\.venv\\Lib\\site-packages\\Crypto\\Hash\\_BLAKE2b.pyd',
   'BINARY'),
  ('Crypto\\Hash\\_SHA256.pyd',
   'C:\\Users\\Faheem '
   'Dev\\Desktop\\Git\\basicEncoder\\.venv\\Lib\\site-packages\\Crypto\\Hash\\_SHA256.pyd',
   'BINARY'),
  ('Crypto\\PublicKey\\_ed25519.pyd',
   'C:\\Users\\Faheem '
   'Dev\\Desktop\\Git\\basicEncoder\\.venv\\Lib\\site-packages\\Crypto\\PublicKey\\_ed25519.pyd',
   'BINARY'),
  ('Crypto\\Hash\\_RIPEMD160.pyd',
   'C:\\Users\\Faheem '
   'Dev\\Desktop\\Git\\basicEncoder\\.venv\\Lib\\site-packages\\Crypto\\Hash\\_RIPEMD160.pyd',
   'BINARY'),
  ('Crypto\\Cipher\\_raw_cfb.pyd',
   'C:\\Users\\Faheem '
   'Dev\\Desktop\\Git\\basicEncoder\\.venv\\Lib\\site-packages\\Crypto\\Cipher\\_raw_cfb.pyd',
   'BINARY'),
  ('Crypto\\Math\\_modexp.pyd',
   'C:\\Users\\Faheem '
   'Dev\\Desktop\\Git\\basicEncoder\\.venv\\Lib\\site-packages\\Crypto\\Math\\_modexp.pyd',
   'BINARY'),
  ('Crypto\\Hash\\_MD2.pyd',
   'C:\\Users\\Faheem '
   'Dev\\Desktop\\Git\\basicEncoder\\.venv\\Lib\\site-packages\\Crypto\\Hash\\_MD2.pyd',
   'BINARY'),
  ('Crypto\\Cipher\\_ARC4.pyd',
   'C:\\Users\\Faheem '
   'Dev\\Desktop\\Git\\basicEncoder\\.venv\\Lib\\site-packages\\Crypto\\Cipher\\_ARC4.pyd',
   'BINARY'),
  ('Crypto\\Cipher\\_raw_eksblowfish.pyd',
   'C:\\Users\\Faheem '
   'Dev\\Desktop\\Git\\basicEncoder\\.venv\\Lib\\site-packages\\Crypto\\Cipher\\_raw_eksblowfish.pyd',
   'BINARY'),
  ('Crypto\\Cipher\\_raw_blowfish.pyd',
   'C:\\Users\\Faheem '
   'Dev\\Desktop\\Git\\basicEncoder\\.venv\\Lib\\site-packages\\Crypto\\Cipher\\_raw_blowfish.pyd',
   'BINARY'),
  ('Crypto\\Hash\\_MD4.pyd',
   'C:\\Users\\Faheem '
   'Dev\\Desktop\\Git\\basicEncoder\\.venv\\Lib\\site-packages\\Crypto\\Hash\\_MD4.pyd',
   'BINARY'),
  ('Crypto\\Cipher\\_chacha20.pyd',
   'C:\\Users\\Faheem '
   'Dev\\Desktop\\Git\\basicEncoder\\.venv\\Lib\\site-packages\\Crypto\\Cipher\\_chacha20.pyd',
   'BINARY'),
  ('Crypto\\Cipher\\_raw_aesni.pyd',
   'C:\\Users\\Faheem '
   'Dev\\Desktop\\Git\\basicEncoder\\.venv\\Lib\\site-packages\\Crypto\\Cipher\\_raw_aesni.pyd',
   'BINARY'),
  ('Crypto\\Hash\\_poly1305.pyd',
   'C:\\Users\\Faheem '
   'Dev\\Desktop\\Git\\basicEncoder\\.venv\\Lib\\site-packages\\Crypto\\Hash\\_poly1305.pyd',
   'BINARY'),
  ('Crypto\\Cipher\\_raw_ocb.pyd',
   'C:\\Users\\Faheem '
   'Dev\\Desktop\\Git\\basicEncoder\\.venv\\Lib\\site-packages\\Crypto\\Cipher\\_raw_ocb.pyd',
   'BINARY'),
  ('Crypto\\Hash\\_SHA384.pyd',
   'C:\\Users\\Faheem '
   'Dev\\Desktop\\Git\\basicEncoder\\.venv\\Lib\\site-packages\\Crypto\\Hash\\_SHA384.pyd',
   'BINARY'),
  ('Crypto\\Cipher\\_raw_aes.pyd',
   'C:\\Users\\Faheem '
   'Dev\\Desktop\\Git\\basicEncoder\\.venv\\Lib\\site-packages\\Crypto\\Cipher\\_raw_aes.pyd',
   'BINARY'),
  ('Crypto\\Cipher\\_raw_cast.pyd',
   'C:\\Users\\Faheem '
   'Dev\\Desktop\\Git\\basicEncoder\\.venv\\Lib\\site-packages\\Crypto\\Cipher\\_raw_cast.pyd',
   'BINARY'),
  ('Crypto\\Cipher\\_raw_des.pyd',
   'C:\\Users\\Faheem '
   'Dev\\Desktop\\Git\\basicEncoder\\.venv\\Lib\\site-packages\\Crypto\\Cipher\\_raw_des.pyd',
   'BINARY'),
  ('Crypto\\Hash\\_ghash_clmul.pyd',
   'C:\\Users\\Faheem '
   'Dev\\Desktop\\Git\\basicEncoder\\.venv\\Lib\\site-packages\\Crypto\\Hash\\_ghash_clmul.pyd',
   'BINARY'),
  ('Crypto\\Hash\\_SHA1.pyd',
   'C:\\Users\\Faheem '
   'Dev\\Desktop\\Git\\basicEncoder\\.venv\\Lib\\site-packages\\Crypto\\Hash\\_SHA1.pyd',
   'BINARY'),
  ('Crypto\\Util\\_cpuid_c.pyd',
   'C:\\Users\\Faheem '
   'Dev\\Desktop\\Git\\basicEncoder\\.venv\\Lib\\site-packages\\Crypto\\Util\\_cpuid_c.pyd',
   'BINARY'),
  ('Crypto\\Hash\\_BLAKE2s.pyd',
   'C:\\Users\\Faheem '
   'Dev\\Desktop\\Git\\basicEncoder\\.venv\\Lib\\site-packages\\Crypto\\Hash\\_BLAKE2s.pyd',
   'BINARY'),
  ('Crypto\\Cipher\\_Salsa20.pyd',
   'C:\\Users\\Faheem '
   'Dev\\Desktop\\Git\\basicEncoder\\.venv\\Lib\\site-packages\\Crypto\\Cipher\\_Salsa20.pyd',
   'BINARY'),
  ('Crypto\\PublicKey\\_ec_ws.pyd',
   'C:\\Users\\Faheem '
   'Dev\\Desktop\\Git\\basicEncoder\\.venv\\Lib\\site-packages\\Crypto\\PublicKey\\_ec_ws.pyd',
   'BINARY'),
  ('select.pyd',
   'C:\\Program '
   'Files\\WindowsApps\\PythonSoftwareFoundation.Python.3.12_3.12.1520.0_x64__qbz5n2kfra8p0\\DLLs\\select.pyd',
   'EXTENSION'),
  ('_lzma.pyd',
   'C:\\Program '
   'Files\\WindowsApps\\PythonSoftwareFoundation.Python.3.12_3.12.1520.0_x64__qbz5n2kfra8p0\\DLLs\\_lzma.pyd',
   'EXTENSION'),
  ('_bz2.pyd',
   'C:\\Program '
   'Files\\WindowsApps\\PythonSoftwareFoundation.Python.3.12_3.12.1520.0_x64__qbz5n2kfra8p0\\DLLs\\_bz2.pyd',
   'EXTENSION'),
  ('unicodedata.pyd',
   'C:\\Program '
   'Files\\WindowsApps\\PythonSoftwareFoundation.Python.3.12_3.12.1520.0_x64__qbz5n2kfra8p0\\DLLs\\unicodedata.pyd',
   'EXTENSION'),
  ('_socket.pyd',
   'C:\\Program '
   'Files\\WindowsApps\\PythonSoftwareFoundation.Python.3.12_3.12.1520.0_x64__qbz5n2kfra8p0\\DLLs\\_socket.pyd',
   'EXTENSION'),
  ('_decimal.pyd',
   'C:\\Program '
   'Files\\WindowsApps\\PythonSoftwareFoundation.Python.3.12_3.12.1520.0_x64__qbz5n2kfra8p0\\DLLs\\_decimal.pyd',
   'EXTENSION'),
  ('_hashlib.pyd',
   'C:\\Program '
   'Files\\WindowsApps\\PythonSoftwareFoundation.Python.3.12_3.12.1520.0_x64__qbz5n2kfra8p0\\DLLs\\_hashlib.pyd',
   'EXTENSION'),
  ('_ctypes.pyd',
   'C:\\Program '
   'Files\\WindowsApps\\PythonSoftwareFoundation.Python.3.12_3.12.1520.0_x64__qbz5n2kfra8p0\\DLLs\\_ctypes.pyd',
   'EXTENSION'),
  ('_queue.pyd',
   'C:\\Program '
   'Files\\WindowsApps\\PythonSoftwareFoundation.Python.3.12_3.12.1520.0_x64__qbz5n2kfra8p0\\DLLs\\_queue.pyd',
   'EXTENSION'),
  ('_ssl.pyd',
   'C:\\Program '
   'Files\\WindowsApps\\PythonSoftwareFoundation.Python.3.12_3.12.1520.0_x64__qbz5n2kfra8p0\\DLLs\\_ssl.pyd',
   'EXTENSION'),
  ('pyexpat.pyd',
   'C:\\Program '
   'Files\\WindowsApps\\PythonSoftwareFoundation.Python.3.12_3.12.1520.0_x64__qbz5n2kfra8p0\\DLLs\\pyexpat.pyd',
   'EXTENSION'),
  ('_wmi.pyd',
   'C:\\Program '
   'Files\\WindowsApps\\PythonSoftwareFoundation.Python.3.12_3.12.1520.0_x64__qbz5n2kfra8p0\\DLLs\\_wmi.pyd',
   'EXTENSION'),
  ('_multiprocessing.pyd',
   'C:\\Program '
   'Files\\WindowsApps\\PythonSoftwareFoundation.Python.3.12_3.12.1520.0_x64__qbz5n2kfra8p0\\DLLs\\_multiprocessing.pyd',
   'EXTENSION'),
  ('_cffi_backend.cp312-win_amd64.pyd',
   'C:\\Users\\Faheem '
   'Dev\\Desktop\\Git\\basicEncoder\\.venv\\Lib\\site-packages\\_cffi_backend.cp312-win_amd64.pyd',
   'EXTENSION'),
  ('api-ms-win-crt-heap-l1-1-0.dll',
   'C:\\Program Files (x86)\\Windows Kits\\10\\Windows Performance '
   'Toolkit\\api-ms-win-crt-heap-l1-1-0.dll',
   'BINARY'),
  ('api-ms-win-crt-locale-l1-1-0.dll',
   'C:\\Program Files (x86)\\Windows Kits\\10\\Windows Performance '
   'Toolkit\\api-ms-win-crt-locale-l1-1-0.dll',
   'BINARY'),
  ('api-ms-win-crt-time-l1-1-0.dll',
   'C:\\Program Files (x86)\\Windows Kits\\10\\Windows Performance '
   'Toolkit\\api-ms-win-crt-time-l1-1-0.dll',
   'BINARY'),
  ('api-ms-win-crt-convert-l1-1-0.dll',
   'C:\\Program Files (x86)\\Windows Kits\\10\\Windows Performance '
   'Toolkit\\api-ms-win-crt-convert-l1-1-0.dll',
   'BINARY'),
  ('api-ms-win-crt-environment-l1-1-0.dll',
   'C:\\Program Files (x86)\\Windows Kits\\10\\Windows Performance '
   'Toolkit\\api-ms-win-crt-environment-l1-1-0.dll',
   'BINARY'),
  ('api-ms-win-crt-process-l1-1-0.dll',
   'C:\\Program Files (x86)\\Windows Kits\\10\\Windows Performance '
   'Toolkit\\api-ms-win-crt-process-l1-1-0.dll',
   'BINARY'),
  ('api-ms-win-crt-string-l1-1-0.dll',
   'C:\\Program Files (x86)\\Windows Kits\\10\\Windows Performance '
   'Toolkit\\api-ms-win-crt-string-l1-1-0.dll',
   'BINARY'),
  ('api-ms-win-crt-stdio-l1-1-0.dll',
   'C:\\Program Files (x86)\\Windows Kits\\10\\Windows Performance '
   'Toolkit\\api-ms-win-crt-stdio-l1-1-0.dll',
   'BINARY'),
  ('api-ms-win-crt-filesystem-l1-1-0.dll',
   'C:\\Program Files (x86)\\Windows Kits\\10\\Windows Performance '
   'Toolkit\\api-ms-win-crt-filesystem-l1-1-0.dll',
   'BINARY'),
  ('api-ms-win-crt-math-l1-1-0.dll',
   'C:\\Program Files (x86)\\Windows Kits\\10\\Windows Performance '
   'Toolkit\\api-ms-win-crt-math-l1-1-0.dll',
   'BINARY'),
  ('api-ms-win-crt-runtime-l1-1-0.dll',
   'C:\\Program Files (x86)\\Windows Kits\\10\\Windows Performance '
   'Toolkit\\api-ms-win-crt-runtime-l1-1-0.dll',
   'BINARY'),
  ('VCRUNTIME140.dll',
   'C:\\Program '
   'Files\\WindowsApps\\PythonSoftwareFoundation.Python.3.12_3.12.1520.0_x64__qbz5n2kfra8p0\\VCRUNTIME140.dll',
   'BINARY'),
  ('api-ms-win-crt-conio-l1-1-0.dll',
   'C:\\Program Files (x86)\\Windows Kits\\10\\Windows Performance '
   'Toolkit\\api-ms-win-crt-conio-l1-1-0.dll',
   'BINARY'),
  ('libcrypto-3.dll',
   'C:\\Program '
   'Files\\WindowsApps\\PythonSoftwareFoundation.Python.3.12_3.12.1520.0_x64__qbz5n2kfra8p0\\DLLs\\libcrypto-3.dll',
   'BINARY'),
  ('libffi-8.dll',
   'C:\\Program '
   'Files\\WindowsApps\\PythonSoftwareFoundation.Python.3.12_3.12.1520.0_x64__qbz5n2kfra8p0\\DLLs\\libffi-8.dll',
   'BINARY'),
  ('libssl-3.dll',
   'C:\\Program '
   'Files\\WindowsApps\\PythonSoftwareFoundation.Python.3.12_3.12.1520.0_x64__qbz5n2kfra8p0\\DLLs\\libssl-3.dll',
   'BINARY'),
  ('api-ms-win-crt-utility-l1-1-0.dll',
   'C:\\Program Files (x86)\\Windows Kits\\10\\Windows Performance '
   'Toolkit\\api-ms-win-crt-utility-l1-1-0.dll',
   'BINARY'),
  ('VCRUNTIME140_1.dll',
   'C:\\Program '
   'Files\\WindowsApps\\PythonSoftwareFoundation.Python.3.12_3.12.1520.0_x64__qbz5n2kfra8p0\\VCRUNTIME140_1.dll',
   'BINARY'),
  ('ucrtbase.dll',
   'C:\\Program Files (x86)\\Windows Kits\\10\\Windows Performance '
   'Toolkit\\ucrtbase.dll',
   'BINARY'),
  ('api-ms-win-core-rtlsupport-l1-1-0.dll',
   'C:\\Program Files (x86)\\Windows Kits\\10\\Windows Performance '
   'Toolkit\\api-ms-win-core-rtlsupport-l1-1-0.dll',
   'BINARY'),
  ('api-ms-win-core-processenvironment-l1-1-0.dll',
   'C:\\Program Files (x86)\\Windows Kits\\10\\Windows Performance '
   'Toolkit\\api-ms-win-core-processenvironment-l1-1-0.dll',
   'BINARY'),
  ('api-ms-win-core-synch-l1-1-0.dll',
   'C:\\Program Files (x86)\\Windows Kits\\10\\Windows Performance '
   'Toolkit\\api-ms-win-core-synch-l1-1-0.dll',
   'BINARY'),
  ('api-ms-win-core-localization-l1-2-0.dll',
   'C:\\Program Files (x86)\\Windows Kits\\10\\Windows Performance '
   'Toolkit\\api-ms-win-core-localization-l1-2-0.dll',
   'BINARY'),
  ('api-ms-win-core-interlocked-l1-1-0.dll',
   'C:\\Program Files (x86)\\Windows Kits\\10\\Windows Performance '
   'Toolkit\\api-ms-win-core-interlocked-l1-1-0.dll',
   'BINARY'),
  ('api-ms-win-core-console-l1-1-0.dll',
   'C:\\Program Files (x86)\\Windows Kits\\10\\Windows Performance '
   'Toolkit\\api-ms-win-core-console-l1-1-0.dll',
   'BINARY'),
  ('api-ms-win-core-file-l2-1-0.dll',
   'C:\\Program Files (x86)\\Windows Kits\\10\\Windows Performance '
   'Toolkit\\api-ms-win-core-file-l2-1-0.dll',
   'BINARY'),
  ('api-ms-win-core-profile-l1-1-0.dll',
   'C:\\Program Files (x86)\\Windows Kits\\10\\Windows Performance '
   'Toolkit\\api-ms-win-core-profile-l1-1-0.dll',
   'BINARY'),
  ('api-ms-win-core-heap-l1-1-0.dll',
   'C:\\Program Files (x86)\\Windows Kits\\10\\Windows Performance '
   'Toolkit\\api-ms-win-core-heap-l1-1-0.dll',
   'BINARY'),
  ('api-ms-win-core-memory-l1-1-0.dll',
   'C:\\Program Files (x86)\\Windows Kits\\10\\Windows Performance '
   'Toolkit\\api-ms-win-core-memory-l1-1-0.dll',
   'BINARY'),
  ('api-ms-win-core-datetime-l1-1-0.dll',
   'C:\\Program Files (x86)\\Windows Kits\\10\\Windows Performance '
   'Toolkit\\api-ms-win-core-datetime-l1-1-0.dll',
   'BINARY'),
  ('api-ms-win-core-handle-l1-1-0.dll',
   'C:\\Program Files (x86)\\Windows Kits\\10\\Windows Performance '
   'Toolkit\\api-ms-win-core-handle-l1-1-0.dll',
   'BINARY'),
  ('api-ms-win-core-timezone-l1-1-0.dll',
   'C:\\Program Files (x86)\\Windows Kits\\10\\Windows Performance '
   'Toolkit\\api-ms-win-core-timezone-l1-1-0.dll',
   'BINARY'),
  ('api-ms-win-core-file-l1-2-0.dll',
   'C:\\Program Files (x86)\\Windows Kits\\10\\Windows Performance '
   'Toolkit\\api-ms-win-core-file-l1-2-0.dll',
   'BINARY'),
  ('api-ms-win-core-string-l1-1-0.dll',
   'C:\\Program Files (x86)\\Windows Kits\\10\\Windows Performance '
   'Toolkit\\api-ms-win-core-string-l1-1-0.dll',
   'BINARY'),
  ('api-ms-win-core-sysinfo-l1-1-0.dll',
   'C:\\Program Files (x86)\\Windows Kits\\10\\Windows Performance '
   'Toolkit\\api-ms-win-core-sysinfo-l1-1-0.dll',
   'BINARY'),
  ('api-ms-win-core-processthreads-l1-1-0.dll',
   'C:\\Program Files (x86)\\Windows Kits\\10\\Windows Performance '
   'Toolkit\\api-ms-win-core-processthreads-l1-1-0.dll',
   'BINARY'),
  ('api-ms-win-core-debug-l1-1-0.dll',
   'C:\\Program Files (x86)\\Windows Kits\\10\\Windows Performance '
   'Toolkit\\api-ms-win-core-debug-l1-1-0.dll',
   'BINARY'),
  ('api-ms-win-core-libraryloader-l1-1-0.dll',
   'C:\\Program Files (x86)\\Windows Kits\\10\\Windows Performance '
   'Toolkit\\api-ms-win-core-libraryloader-l1-1-0.dll',
   'BINARY'),
  ('api-ms-win-core-processthreads-l1-1-1.dll',
   'C:\\Program Files (x86)\\Windows Kits\\10\\Windows Performance '
   'Toolkit\\api-ms-win-core-processthreads-l1-1-1.dll',
   'BINARY'),
  ('api-ms-win-core-synch-l1-2-0.dll',
   'C:\\Program Files (x86)\\Windows Kits\\10\\Windows Performance '
   'Toolkit\\api-ms-win-core-synch-l1-2-0.dll',
   'BINARY'),
  ('api-ms-win-core-errorhandling-l1-1-0.dll',
   'C:\\Program Files (x86)\\Windows Kits\\10\\Windows Performance '
   'Toolkit\\api-ms-win-core-errorhandling-l1-1-0.dll',
   'BINARY'),
  ('api-ms-win-core-file-l1-1-0.dll',
   'C:\\Program Files (x86)\\Windows Kits\\10\\Windows Performance '
   'Toolkit\\api-ms-win-core-file-l1-1-0.dll',
   'BINARY'),
  ('api-ms-win-core-util-l1-1-0.dll',
   'C:\\Program Files (x86)\\Windows Kits\\10\\Windows Performance '
   'Toolkit\\api-ms-win-core-util-l1-1-0.dll',
   'BINARY'),
  ('api-ms-win-core-namedpipe-l1-1-0.dll',
   'C:\\Program Files (x86)\\Windows Kits\\10\\Windows Performance '
   'Toolkit\\api-ms-win-core-namedpipe-l1-1-0.dll',
   'BINARY'),
  ('base_library.zip',
   'C:\\Users\\Faheem '
   'Dev\\Desktop\\Git\\basicEncoder\\build\\RootCryptor\\base_library.zip',
   'DATA'),
  ('wheel-0.41.2.dist-info\\LICENSE.txt',
   'C:\\Users\\Faheem '
   'Dev\\Desktop\\Git\\basicEncoder\\.venv\\Lib\\site-packages\\wheel-0.41.2.dist-info\\LICENSE.txt',
   'DATA'),
  ('wheel-0.41.2.dist-info\\RECORD',
   'C:\\Users\\Faheem '
   'Dev\\Desktop\\Git\\basicEncoder\\.venv\\Lib\\site-packages\\wheel-0.41.2.dist-info\\RECORD',
   'DATA'),
  ('wheel-0.41.2.dist-info\\entry_points.txt',
   'C:\\Users\\Faheem '
   'Dev\\Desktop\\Git\\basicEncoder\\.venv\\Lib\\site-packages\\wheel-0.41.2.dist-info\\entry_points.txt',
   'DATA'),
  ('wheel-0.41.2.dist-info\\WHEEL',
   'C:\\Users\\Faheem '
   'Dev\\Desktop\\Git\\basicEncoder\\.venv\\Lib\\site-packages\\wheel-0.41.2.dist-info\\WHEEL',
   'DATA'),
  ('wheel-0.41.2.dist-info\\REQUESTED',
   'C:\\Users\\Faheem '
   'Dev\\Desktop\\Git\\basicEncoder\\.venv\\Lib\\site-packages\\wheel-0.41.2.dist-info\\REQUESTED',
   'DATA'),
  ('wheel-0.41.2.dist-info\\METADATA',
   'C:\\Users\\Faheem '
   'Dev\\Desktop\\Git\\basicEncoder\\.venv\\Lib\\site-packages\\wheel-0.41.2.dist-info\\METADATA',
   'DATA'),
  ('wheel-0.41.2.dist-info\\INSTALLER',
   'C:\\Users\\Faheem '
   'Dev\\Desktop\\Git\\basicEncoder\\.venv\\Lib\\site-packages\\wheel-0.41.2.dist-info\\INSTALLER',
   'DATA')],
 [],
 False,
 False,
 1723914447,
 [('run.exe',
   'C:\\Users\\Faheem '
   'Dev\\Desktop\\Git\\basicEncoder\\.venv\\Lib\\site-packages\\PyInstaller\\bootloader\\Windows-64bit-intel\\run.exe',
   'EXECUTABLE')],
 'C:\\Program '
 'Files\\WindowsApps\\PythonSoftwareFoundation.Python.3.12_3.12.1520.0_x64__qbz5n2kfra8p0\\python312.dll')
