('C:\\Users\\Faheem '
 'Dev\\Desktop\\Git\\basicEncoder\\build\\RootCryptor\\PYZ-00.pyz',
 [('Crypto',
   'C:\\Users\\Faheem '
   'Dev\\Desktop\\Git\\basicEncoder\\.venv\\Lib\\site-packages\\Crypto\\__init__.py',
   'PYMODULE'),
  ('Crypto.Cipher',
   'C:\\Users\\Faheem '
   'Dev\\Desktop\\Git\\basicEncoder\\.venv\\Lib\\site-packages\\Crypto\\Cipher\\__init__.py',
   'PYMODULE'),
  ('Crypto.Cipher.AES',
   'C:\\Users\\Faheem '
   'Dev\\Desktop\\Git\\basicEncoder\\.venv\\Lib\\site-packages\\Crypto\\Cipher\\AES.py',
   'PYMODULE'),
  ('Crypto.Cipher._EKSBlowfish',
   'C:\\Users\\Faheem '
   'Dev\\Desktop\\Git\\basicEncoder\\.venv\\Lib\\site-packages\\Crypto\\Cipher\\_EKSBlowfish.py',
   'PYMODULE'),
  ('Crypto.Cipher._mode_cbc',
   'C:\\Users\\Faheem '
   'Dev\\Desktop\\Git\\basicEncoder\\.venv\\Lib\\site-packages\\Crypto\\Cipher\\_mode_cbc.py',
   'PYMODULE'),
  ('Crypto.Cipher._mode_ccm',
   'C:\\Users\\Faheem '
   'Dev\\Desktop\\Git\\basicEncoder\\.venv\\Lib\\site-packages\\Crypto\\Cipher\\_mode_ccm.py',
   'PYMODULE'),
  ('Crypto.Cipher._mode_cfb',
   'C:\\Users\\Faheem '
   'Dev\\Desktop\\Git\\basicEncoder\\.venv\\Lib\\site-packages\\Crypto\\Cipher\\_mode_cfb.py',
   'PYMODULE'),
  ('Crypto.Cipher._mode_ctr',
   'C:\\Users\\Faheem '
   'Dev\\Desktop\\Git\\basicEncoder\\.venv\\Lib\\site-packages\\Crypto\\Cipher\\_mode_ctr.py',
   'PYMODULE'),
  ('Crypto.Cipher._mode_eax',
   'C:\\Users\\Faheem '
   'Dev\\Desktop\\Git\\basicEncoder\\.venv\\Lib\\site-packages\\Crypto\\Cipher\\_mode_eax.py',
   'PYMODULE'),
  ('Crypto.Cipher._mode_ecb',
   'C:\\Users\\Faheem '
   'Dev\\Desktop\\Git\\basicEncoder\\.venv\\Lib\\site-packages\\Crypto\\Cipher\\_mode_ecb.py',
   'PYMODULE'),
  ('Crypto.Cipher._mode_gcm',
   'C:\\Users\\Faheem '
   'Dev\\Desktop\\Git\\basicEncoder\\.venv\\Lib\\site-packages\\Crypto\\Cipher\\_mode_gcm.py',
   'PYMODULE'),
  ('Crypto.Cipher._mode_ocb',
   'C:\\Users\\Faheem '
   'Dev\\Desktop\\Git\\basicEncoder\\.venv\\Lib\\site-packages\\Crypto\\Cipher\\_mode_ocb.py',
   'PYMODULE'),
  ('Crypto.Cipher._mode_ofb',
   'C:\\Users\\Faheem '
   'Dev\\Desktop\\Git\\basicEncoder\\.venv\\Lib\\site-packages\\Crypto\\Cipher\\_mode_ofb.py',
   'PYMODULE'),
  ('Crypto.Cipher._mode_openpgp',
   'C:\\Users\\Faheem '
   'Dev\\Desktop\\Git\\basicEncoder\\.venv\\Lib\\site-packages\\Crypto\\Cipher\\_mode_openpgp.py',
   'PYMODULE'),
  ('Crypto.Cipher._mode_siv',
   'C:\\Users\\Faheem '
   'Dev\\Desktop\\Git\\basicEncoder\\.venv\\Lib\\site-packages\\Crypto\\Cipher\\_mode_siv.py',
   'PYMODULE'),
  ('Crypto.Hash',
   'C:\\Users\\Faheem '
   'Dev\\Desktop\\Git\\basicEncoder\\.venv\\Lib\\site-packages\\Crypto\\Hash\\__init__.py',
   'PYMODULE'),
  ('Crypto.Hash.BLAKE2s',
   'C:\\Users\\Faheem '
   'Dev\\Desktop\\Git\\basicEncoder\\.venv\\Lib\\site-packages\\Crypto\\Hash\\BLAKE2s.py',
   'PYMODULE'),
  ('Crypto.Hash.CMAC',
   'C:\\Users\\Faheem '
   'Dev\\Desktop\\Git\\basicEncoder\\.venv\\Lib\\site-packages\\Crypto\\Hash\\CMAC.py',
   'PYMODULE'),
  ('Crypto.Hash.HMAC',
   'C:\\Users\\Faheem '
   'Dev\\Desktop\\Git\\basicEncoder\\.venv\\Lib\\site-packages\\Crypto\\Hash\\HMAC.py',
   'PYMODULE'),
  ('Crypto.Hash.MD5',
   'C:\\Users\\Faheem '
   'Dev\\Desktop\\Git\\basicEncoder\\.venv\\Lib\\site-packages\\Crypto\\Hash\\MD5.py',
   'PYMODULE'),
  ('Crypto.Hash.SHA1',
   'C:\\Users\\Faheem '
   'Dev\\Desktop\\Git\\basicEncoder\\.venv\\Lib\\site-packages\\Crypto\\Hash\\SHA1.py',
   'PYMODULE'),
  ('Crypto.Hash.SHA256',
   'C:\\Users\\Faheem '
   'Dev\\Desktop\\Git\\basicEncoder\\.venv\\Lib\\site-packages\\Crypto\\Hash\\SHA256.py',
   'PYMODULE'),
  ('Crypto.Protocol',
   'C:\\Users\\Faheem '
   'Dev\\Desktop\\Git\\basicEncoder\\.venv\\Lib\\site-packages\\Crypto\\Protocol\\__init__.py',
   'PYMODULE'),
  ('Crypto.Protocol.KDF',
   'C:\\Users\\Faheem '
   'Dev\\Desktop\\Git\\basicEncoder\\.venv\\Lib\\site-packages\\Crypto\\Protocol\\KDF.py',
   'PYMODULE'),
  ('Crypto.Random',
   'C:\\Users\\Faheem '
   'Dev\\Desktop\\Git\\basicEncoder\\.venv\\Lib\\site-packages\\Crypto\\Random\\__init__.py',
   'PYMODULE'),
  ('Crypto.Util',
   'C:\\Users\\Faheem '
   'Dev\\Desktop\\Git\\basicEncoder\\.venv\\Lib\\site-packages\\Crypto\\Util\\__init__.py',
   'PYMODULE'),
  ('Crypto.Util._cpu_features',
   'C:\\Users\\Faheem '
   'Dev\\Desktop\\Git\\basicEncoder\\.venv\\Lib\\site-packages\\Crypto\\Util\\_cpu_features.py',
   'PYMODULE'),
  ('Crypto.Util._file_system',
   'C:\\Users\\Faheem '
   'Dev\\Desktop\\Git\\basicEncoder\\.venv\\Lib\\site-packages\\Crypto\\Util\\_file_system.py',
   'PYMODULE'),
  ('Crypto.Util._raw_api',
   'C:\\Users\\Faheem '
   'Dev\\Desktop\\Git\\basicEncoder\\.venv\\Lib\\site-packages\\Crypto\\Util\\_raw_api.py',
   'PYMODULE'),
  ('Crypto.Util.number',
   'C:\\Users\\Faheem '
   'Dev\\Desktop\\Git\\basicEncoder\\.venv\\Lib\\site-packages\\Crypto\\Util\\number.py',
   'PYMODULE'),
  ('Crypto.Util.py3compat',
   'C:\\Users\\Faheem '
   'Dev\\Desktop\\Git\\basicEncoder\\.venv\\Lib\\site-packages\\Crypto\\Util\\py3compat.py',
   'PYMODULE'),
  ('Crypto.Util.strxor',
   'C:\\Users\\Faheem '
   'Dev\\Desktop\\Git\\basicEncoder\\.venv\\Lib\\site-packages\\Crypto\\Util\\strxor.py',
   'PYMODULE'),
  ('__future__',
   'C:\\Program '
   'Files\\WindowsApps\\PythonSoftwareFoundation.Python.3.12_3.12.1520.0_x64__qbz5n2kfra8p0\\Lib\\__future__.py',
   'PYMODULE'),
  ('_aix_support',
   'C:\\Program '
   'Files\\WindowsApps\\PythonSoftwareFoundation.Python.3.12_3.12.1520.0_x64__qbz5n2kfra8p0\\Lib\\_aix_support.py',
   'PYMODULE'),
  ('_compat_pickle',
   'C:\\Program '
   'Files\\WindowsApps\\PythonSoftwareFoundation.Python.3.12_3.12.1520.0_x64__qbz5n2kfra8p0\\Lib\\_compat_pickle.py',
   'PYMODULE'),
  ('_compression',
   'C:\\Program '
   'Files\\WindowsApps\\PythonSoftwareFoundation.Python.3.12_3.12.1520.0_x64__qbz5n2kfra8p0\\Lib\\_compression.py',
   'PYMODULE'),
  ('_distutils_hack',
   'C:\\Users\\Faheem '
   'Dev\\Desktop\\Git\\basicEncoder\\.venv\\Lib\\site-packages\\_distutils_hack\\__init__.py',
   'PYMODULE'),
  ('_distutils_hack.override',
   'C:\\Users\\Faheem '
   'Dev\\Desktop\\Git\\basicEncoder\\.venv\\Lib\\site-packages\\_distutils_hack\\override.py',
   'PYMODULE'),
  ('_osx_support',
   'C:\\Program '
   'Files\\WindowsApps\\PythonSoftwareFoundation.Python.3.12_3.12.1520.0_x64__qbz5n2kfra8p0\\Lib\\_osx_support.py',
   'PYMODULE'),
  ('_py_abc',
   'C:\\Program '
   'Files\\WindowsApps\\PythonSoftwareFoundation.Python.3.12_3.12.1520.0_x64__qbz5n2kfra8p0\\Lib\\_py_abc.py',
   'PYMODULE'),
  ('_pydatetime',
   'C:\\Program '
   'Files\\WindowsApps\\PythonSoftwareFoundation.Python.3.12_3.12.1520.0_x64__qbz5n2kfra8p0\\Lib\\_pydatetime.py',
   'PYMODULE'),
  ('_pydecimal',
   'C:\\Program '
   'Files\\WindowsApps\\PythonSoftwareFoundation.Python.3.12_3.12.1520.0_x64__qbz5n2kfra8p0\\Lib\\_pydecimal.py',
   'PYMODULE'),
  ('_sitebuiltins',
   'C:\\Program '
   'Files\\WindowsApps\\PythonSoftwareFoundation.Python.3.12_3.12.1520.0_x64__qbz5n2kfra8p0\\Lib\\_sitebuiltins.py',
   'PYMODULE'),
  ('_strptime',
   'C:\\Program '
   'Files\\WindowsApps\\PythonSoftwareFoundation.Python.3.12_3.12.1520.0_x64__qbz5n2kfra8p0\\Lib\\_strptime.py',
   'PYMODULE'),
  ('_threading_local',
   'C:\\Program '
   'Files\\WindowsApps\\PythonSoftwareFoundation.Python.3.12_3.12.1520.0_x64__qbz5n2kfra8p0\\Lib\\_threading_local.py',
   'PYMODULE'),
  ('argparse',
   'C:\\Program '
   'Files\\WindowsApps\\PythonSoftwareFoundation.Python.3.12_3.12.1520.0_x64__qbz5n2kfra8p0\\Lib\\argparse.py',
   'PYMODULE'),
  ('ast',
   'C:\\Program '
   'Files\\WindowsApps\\PythonSoftwareFoundation.Python.3.12_3.12.1520.0_x64__qbz5n2kfra8p0\\Lib\\ast.py',
   'PYMODULE'),
  ('base64',
   'C:\\Program '
   'Files\\WindowsApps\\PythonSoftwareFoundation.Python.3.12_3.12.1520.0_x64__qbz5n2kfra8p0\\Lib\\base64.py',
   'PYMODULE'),
  ('bisect',
   'C:\\Program '
   'Files\\WindowsApps\\PythonSoftwareFoundation.Python.3.12_3.12.1520.0_x64__qbz5n2kfra8p0\\Lib\\bisect.py',
   'PYMODULE'),
  ('bz2',
   'C:\\Program '
   'Files\\WindowsApps\\PythonSoftwareFoundation.Python.3.12_3.12.1520.0_x64__qbz5n2kfra8p0\\Lib\\bz2.py',
   'PYMODULE'),
  ('calendar',
   'C:\\Program '
   'Files\\WindowsApps\\PythonSoftwareFoundation.Python.3.12_3.12.1520.0_x64__qbz5n2kfra8p0\\Lib\\calendar.py',
   'PYMODULE'),
  ('cffi',
   'C:\\Users\\Faheem '
   'Dev\\Desktop\\Git\\basicEncoder\\.venv\\Lib\\site-packages\\cffi\\__init__.py',
   'PYMODULE'),
  ('cffi._imp_emulation',
   'C:\\Users\\Faheem '
   'Dev\\Desktop\\Git\\basicEncoder\\.venv\\Lib\\site-packages\\cffi\\_imp_emulation.py',
   'PYMODULE'),
  ('cffi._shimmed_dist_utils',
   'C:\\Users\\Faheem '
   'Dev\\Desktop\\Git\\basicEncoder\\.venv\\Lib\\site-packages\\cffi\\_shimmed_dist_utils.py',
   'PYMODULE'),
  ('cffi.api',
   'C:\\Users\\Faheem '
   'Dev\\Desktop\\Git\\basicEncoder\\.venv\\Lib\\site-packages\\cffi\\api.py',
   'PYMODULE'),
  ('cffi.cffi_opcode',
   'C:\\Users\\Faheem '
   'Dev\\Desktop\\Git\\basicEncoder\\.venv\\Lib\\site-packages\\cffi\\cffi_opcode.py',
   'PYMODULE'),
  ('cffi.commontypes',
   'C:\\Users\\Faheem '
   'Dev\\Desktop\\Git\\basicEncoder\\.venv\\Lib\\site-packages\\cffi\\commontypes.py',
   'PYMODULE'),
  ('cffi.cparser',
   'C:\\Users\\Faheem '
   'Dev\\Desktop\\Git\\basicEncoder\\.venv\\Lib\\site-packages\\cffi\\cparser.py',
   'PYMODULE'),
  ('cffi.error',
   'C:\\Users\\Faheem '
   'Dev\\Desktop\\Git\\basicEncoder\\.venv\\Lib\\site-packages\\cffi\\error.py',
   'PYMODULE'),
  ('cffi.ffiplatform',
   'C:\\Users\\Faheem '
   'Dev\\Desktop\\Git\\basicEncoder\\.venv\\Lib\\site-packages\\cffi\\ffiplatform.py',
   'PYMODULE'),
  ('cffi.lock',
   'C:\\Users\\Faheem '
   'Dev\\Desktop\\Git\\basicEncoder\\.venv\\Lib\\site-packages\\cffi\\lock.py',
   'PYMODULE'),
  ('cffi.model',
   'C:\\Users\\Faheem '
   'Dev\\Desktop\\Git\\basicEncoder\\.venv\\Lib\\site-packages\\cffi\\model.py',
   'PYMODULE'),
  ('cffi.pkgconfig',
   'C:\\Users\\Faheem '
   'Dev\\Desktop\\Git\\basicEncoder\\.venv\\Lib\\site-packages\\cffi\\pkgconfig.py',
   'PYMODULE'),
  ('cffi.recompiler',
   'C:\\Users\\Faheem '
   'Dev\\Desktop\\Git\\basicEncoder\\.venv\\Lib\\site-packages\\cffi\\recompiler.py',
   'PYMODULE'),
  ('cffi.vengine_cpy',
   'C:\\Users\\Faheem '
   'Dev\\Desktop\\Git\\basicEncoder\\.venv\\Lib\\site-packages\\cffi\\vengine_cpy.py',
   'PYMODULE'),
  ('cffi.vengine_gen',
   'C:\\Users\\Faheem '
   'Dev\\Desktop\\Git\\basicEncoder\\.venv\\Lib\\site-packages\\cffi\\vengine_gen.py',
   'PYMODULE'),
  ('cffi.verifier',
   'C:\\Users\\Faheem '
   'Dev\\Desktop\\Git\\basicEncoder\\.venv\\Lib\\site-packages\\cffi\\verifier.py',
   'PYMODULE'),
  ('cgi',
   'C:\\Program '
   'Files\\WindowsApps\\PythonSoftwareFoundation.Python.3.12_3.12.1520.0_x64__qbz5n2kfra8p0\\Lib\\cgi.py',
   'PYMODULE'),
  ('concurrent',
   'C:\\Program '
   'Files\\WindowsApps\\PythonSoftwareFoundation.Python.3.12_3.12.1520.0_x64__qbz5n2kfra8p0\\Lib\\concurrent\\__init__.py',
   'PYMODULE'),
  ('concurrent.futures',
   'C:\\Program '
   'Files\\WindowsApps\\PythonSoftwareFoundation.Python.3.12_3.12.1520.0_x64__qbz5n2kfra8p0\\Lib\\concurrent\\futures\\__init__.py',
   'PYMODULE'),
  ('concurrent.futures._base',
   'C:\\Program '
   'Files\\WindowsApps\\PythonSoftwareFoundation.Python.3.12_3.12.1520.0_x64__qbz5n2kfra8p0\\Lib\\concurrent\\futures\\_base.py',
   'PYMODULE'),
  ('concurrent.futures.process',
   'C:\\Program '
   'Files\\WindowsApps\\PythonSoftwareFoundation.Python.3.12_3.12.1520.0_x64__qbz5n2kfra8p0\\Lib\\concurrent\\futures\\process.py',
   'PYMODULE'),
  ('concurrent.futures.thread',
   'C:\\Program '
   'Files\\WindowsApps\\PythonSoftwareFoundation.Python.3.12_3.12.1520.0_x64__qbz5n2kfra8p0\\Lib\\concurrent\\futures\\thread.py',
   'PYMODULE'),
  ('configparser',
   'C:\\Program '
   'Files\\WindowsApps\\PythonSoftwareFoundation.Python.3.12_3.12.1520.0_x64__qbz5n2kfra8p0\\Lib\\configparser.py',
   'PYMODULE'),
  ('contextlib',
   'C:\\Program '
   'Files\\WindowsApps\\PythonSoftwareFoundation.Python.3.12_3.12.1520.0_x64__qbz5n2kfra8p0\\Lib\\contextlib.py',
   'PYMODULE'),
  ('contextvars',
   'C:\\Program '
   'Files\\WindowsApps\\PythonSoftwareFoundation.Python.3.12_3.12.1520.0_x64__qbz5n2kfra8p0\\Lib\\contextvars.py',
   'PYMODULE'),
  ('copy',
   'C:\\Program '
   'Files\\WindowsApps\\PythonSoftwareFoundation.Python.3.12_3.12.1520.0_x64__qbz5n2kfra8p0\\Lib\\copy.py',
   'PYMODULE'),
  ('csv',
   'C:\\Program '
   'Files\\WindowsApps\\PythonSoftwareFoundation.Python.3.12_3.12.1520.0_x64__qbz5n2kfra8p0\\Lib\\csv.py',
   'PYMODULE'),
  ('ctypes',
   'C:\\Program '
   'Files\\WindowsApps\\PythonSoftwareFoundation.Python.3.12_3.12.1520.0_x64__qbz5n2kfra8p0\\Lib\\ctypes\\__init__.py',
   'PYMODULE'),
  ('ctypes._aix',
   'C:\\Program '
   'Files\\WindowsApps\\PythonSoftwareFoundation.Python.3.12_3.12.1520.0_x64__qbz5n2kfra8p0\\Lib\\ctypes\\_aix.py',
   'PYMODULE'),
  ('ctypes._endian',
   'C:\\Program '
   'Files\\WindowsApps\\PythonSoftwareFoundation.Python.3.12_3.12.1520.0_x64__qbz5n2kfra8p0\\Lib\\ctypes\\_endian.py',
   'PYMODULE'),
  ('ctypes.macholib',
   'C:\\Program '
   'Files\\WindowsApps\\PythonSoftwareFoundation.Python.3.12_3.12.1520.0_x64__qbz5n2kfra8p0\\Lib\\ctypes\\macholib\\__init__.py',
   'PYMODULE'),
  ('ctypes.macholib.dyld',
   'C:\\Program '
   'Files\\WindowsApps\\PythonSoftwareFoundation.Python.3.12_3.12.1520.0_x64__qbz5n2kfra8p0\\Lib\\ctypes\\macholib\\dyld.py',
   'PYMODULE'),
  ('ctypes.macholib.dylib',
   'C:\\Program '
   'Files\\WindowsApps\\PythonSoftwareFoundation.Python.3.12_3.12.1520.0_x64__qbz5n2kfra8p0\\Lib\\ctypes\\macholib\\dylib.py',
   'PYMODULE'),
  ('ctypes.macholib.framework',
   'C:\\Program '
   'Files\\WindowsApps\\PythonSoftwareFoundation.Python.3.12_3.12.1520.0_x64__qbz5n2kfra8p0\\Lib\\ctypes\\macholib\\framework.py',
   'PYMODULE'),
  ('ctypes.util',
   'C:\\Program '
   'Files\\WindowsApps\\PythonSoftwareFoundation.Python.3.12_3.12.1520.0_x64__qbz5n2kfra8p0\\Lib\\ctypes\\util.py',
   'PYMODULE'),
  ('dataclasses',
   'C:\\Program '
   'Files\\WindowsApps\\PythonSoftwareFoundation.Python.3.12_3.12.1520.0_x64__qbz5n2kfra8p0\\Lib\\dataclasses.py',
   'PYMODULE'),
  ('datetime',
   'C:\\Program '
   'Files\\WindowsApps\\PythonSoftwareFoundation.Python.3.12_3.12.1520.0_x64__qbz5n2kfra8p0\\Lib\\datetime.py',
   'PYMODULE'),
  ('decimal',
   'C:\\Program '
   'Files\\WindowsApps\\PythonSoftwareFoundation.Python.3.12_3.12.1520.0_x64__qbz5n2kfra8p0\\Lib\\decimal.py',
   'PYMODULE'),
  ('dis',
   'C:\\Program '
   'Files\\WindowsApps\\PythonSoftwareFoundation.Python.3.12_3.12.1520.0_x64__qbz5n2kfra8p0\\Lib\\dis.py',
   'PYMODULE'),
  ('email',
   'C:\\Program '
   'Files\\WindowsApps\\PythonSoftwareFoundation.Python.3.12_3.12.1520.0_x64__qbz5n2kfra8p0\\Lib\\email\\__init__.py',
   'PYMODULE'),
  ('email._encoded_words',
   'C:\\Program '
   'Files\\WindowsApps\\PythonSoftwareFoundation.Python.3.12_3.12.1520.0_x64__qbz5n2kfra8p0\\Lib\\email\\_encoded_words.py',
   'PYMODULE'),
  ('email._header_value_parser',
   'C:\\Program '
   'Files\\WindowsApps\\PythonSoftwareFoundation.Python.3.12_3.12.1520.0_x64__qbz5n2kfra8p0\\Lib\\email\\_header_value_parser.py',
   'PYMODULE'),
  ('email._parseaddr',
   'C:\\Program '
   'Files\\WindowsApps\\PythonSoftwareFoundation.Python.3.12_3.12.1520.0_x64__qbz5n2kfra8p0\\Lib\\email\\_parseaddr.py',
   'PYMODULE'),
  ('email._policybase',
   'C:\\Program '
   'Files\\WindowsApps\\PythonSoftwareFoundation.Python.3.12_3.12.1520.0_x64__qbz5n2kfra8p0\\Lib\\email\\_policybase.py',
   'PYMODULE'),
  ('email.base64mime',
   'C:\\Program '
   'Files\\WindowsApps\\PythonSoftwareFoundation.Python.3.12_3.12.1520.0_x64__qbz5n2kfra8p0\\Lib\\email\\base64mime.py',
   'PYMODULE'),
  ('email.charset',
   'C:\\Program '
   'Files\\WindowsApps\\PythonSoftwareFoundation.Python.3.12_3.12.1520.0_x64__qbz5n2kfra8p0\\Lib\\email\\charset.py',
   'PYMODULE'),
  ('email.contentmanager',
   'C:\\Program '
   'Files\\WindowsApps\\PythonSoftwareFoundation.Python.3.12_3.12.1520.0_x64__qbz5n2kfra8p0\\Lib\\email\\contentmanager.py',
   'PYMODULE'),
  ('email.encoders',
   'C:\\Program '
   'Files\\WindowsApps\\PythonSoftwareFoundation.Python.3.12_3.12.1520.0_x64__qbz5n2kfra8p0\\Lib\\email\\encoders.py',
   'PYMODULE'),
  ('email.errors',
   'C:\\Program '
   'Files\\WindowsApps\\PythonSoftwareFoundation.Python.3.12_3.12.1520.0_x64__qbz5n2kfra8p0\\Lib\\email\\errors.py',
   'PYMODULE'),
  ('email.feedparser',
   'C:\\Program '
   'Files\\WindowsApps\\PythonSoftwareFoundation.Python.3.12_3.12.1520.0_x64__qbz5n2kfra8p0\\Lib\\email\\feedparser.py',
   'PYMODULE'),
  ('email.generator',
   'C:\\Program '
   'Files\\WindowsApps\\PythonSoftwareFoundation.Python.3.12_3.12.1520.0_x64__qbz5n2kfra8p0\\Lib\\email\\generator.py',
   'PYMODULE'),
  ('email.header',
   'C:\\Program '
   'Files\\WindowsApps\\PythonSoftwareFoundation.Python.3.12_3.12.1520.0_x64__qbz5n2kfra8p0\\Lib\\email\\header.py',
   'PYMODULE'),
  ('email.headerregistry',
   'C:\\Program '
   'Files\\WindowsApps\\PythonSoftwareFoundation.Python.3.12_3.12.1520.0_x64__qbz5n2kfra8p0\\Lib\\email\\headerregistry.py',
   'PYMODULE'),
  ('email.iterators',
   'C:\\Program '
   'Files\\WindowsApps\\PythonSoftwareFoundation.Python.3.12_3.12.1520.0_x64__qbz5n2kfra8p0\\Lib\\email\\iterators.py',
   'PYMODULE'),
  ('email.message',
   'C:\\Program '
   'Files\\WindowsApps\\PythonSoftwareFoundation.Python.3.12_3.12.1520.0_x64__qbz5n2kfra8p0\\Lib\\email\\message.py',
   'PYMODULE'),
  ('email.parser',
   'C:\\Program '
   'Files\\WindowsApps\\PythonSoftwareFoundation.Python.3.12_3.12.1520.0_x64__qbz5n2kfra8p0\\Lib\\email\\parser.py',
   'PYMODULE'),
  ('email.policy',
   'C:\\Program '
   'Files\\WindowsApps\\PythonSoftwareFoundation.Python.3.12_3.12.1520.0_x64__qbz5n2kfra8p0\\Lib\\email\\policy.py',
   'PYMODULE'),
  ('email.quoprimime',
   'C:\\Program '
   'Files\\WindowsApps\\PythonSoftwareFoundation.Python.3.12_3.12.1520.0_x64__qbz5n2kfra8p0\\Lib\\email\\quoprimime.py',
   'PYMODULE'),
  ('email.utils',
   'C:\\Program '
   'Files\\WindowsApps\\PythonSoftwareFoundation.Python.3.12_3.12.1520.0_x64__qbz5n2kfra8p0\\Lib\\email\\utils.py',
   'PYMODULE'),
  ('fnmatch',
   'C:\\Program '
   'Files\\WindowsApps\\PythonSoftwareFoundation.Python.3.12_3.12.1520.0_x64__qbz5n2kfra8p0\\Lib\\fnmatch.py',
   'PYMODULE'),
  ('fractions',
   'C:\\Program '
   'Files\\WindowsApps\\PythonSoftwareFoundation.Python.3.12_3.12.1520.0_x64__qbz5n2kfra8p0\\Lib\\fractions.py',
   'PYMODULE'),
  ('ftplib',
   'C:\\Program '
   'Files\\WindowsApps\\PythonSoftwareFoundation.Python.3.12_3.12.1520.0_x64__qbz5n2kfra8p0\\Lib\\ftplib.py',
   'PYMODULE'),
  ('getopt',
   'C:\\Program '
   'Files\\WindowsApps\\PythonSoftwareFoundation.Python.3.12_3.12.1520.0_x64__qbz5n2kfra8p0\\Lib\\getopt.py',
   'PYMODULE'),
  ('getpass',
   'C:\\Program '
   'Files\\WindowsApps\\PythonSoftwareFoundation.Python.3.12_3.12.1520.0_x64__qbz5n2kfra8p0\\Lib\\getpass.py',
   'PYMODULE'),
  ('gettext',
   'C:\\Program '
   'Files\\WindowsApps\\PythonSoftwareFoundation.Python.3.12_3.12.1520.0_x64__qbz5n2kfra8p0\\Lib\\gettext.py',
   'PYMODULE'),
  ('glob',
   'C:\\Program '
   'Files\\WindowsApps\\PythonSoftwareFoundation.Python.3.12_3.12.1520.0_x64__qbz5n2kfra8p0\\Lib\\glob.py',
   'PYMODULE'),
  ('gzip',
   'C:\\Program '
   'Files\\WindowsApps\\PythonSoftwareFoundation.Python.3.12_3.12.1520.0_x64__qbz5n2kfra8p0\\Lib\\gzip.py',
   'PYMODULE'),
  ('hashlib',
   'C:\\Program '
   'Files\\WindowsApps\\PythonSoftwareFoundation.Python.3.12_3.12.1520.0_x64__qbz5n2kfra8p0\\Lib\\hashlib.py',
   'PYMODULE'),
  ('hmac',
   'C:\\Program '
   'Files\\WindowsApps\\PythonSoftwareFoundation.Python.3.12_3.12.1520.0_x64__qbz5n2kfra8p0\\Lib\\hmac.py',
   'PYMODULE'),
  ('html',
   'C:\\Program '
   'Files\\WindowsApps\\PythonSoftwareFoundation.Python.3.12_3.12.1520.0_x64__qbz5n2kfra8p0\\Lib\\html\\__init__.py',
   'PYMODULE'),
  ('html.entities',
   'C:\\Program '
   'Files\\WindowsApps\\PythonSoftwareFoundation.Python.3.12_3.12.1520.0_x64__qbz5n2kfra8p0\\Lib\\html\\entities.py',
   'PYMODULE'),
  ('http',
   'C:\\Program '
   'Files\\WindowsApps\\PythonSoftwareFoundation.Python.3.12_3.12.1520.0_x64__qbz5n2kfra8p0\\Lib\\http\\__init__.py',
   'PYMODULE'),
  ('http.client',
   'C:\\Program '
   'Files\\WindowsApps\\PythonSoftwareFoundation.Python.3.12_3.12.1520.0_x64__qbz5n2kfra8p0\\Lib\\http\\client.py',
   'PYMODULE'),
  ('http.cookiejar',
   'C:\\Program '
   'Files\\WindowsApps\\PythonSoftwareFoundation.Python.3.12_3.12.1520.0_x64__qbz5n2kfra8p0\\Lib\\http\\cookiejar.py',
   'PYMODULE'),
  ('http.server',
   'C:\\Program '
   'Files\\WindowsApps\\PythonSoftwareFoundation.Python.3.12_3.12.1520.0_x64__qbz5n2kfra8p0\\Lib\\http\\server.py',
   'PYMODULE'),
  ('importlib',
   'C:\\Program '
   'Files\\WindowsApps\\PythonSoftwareFoundation.Python.3.12_3.12.1520.0_x64__qbz5n2kfra8p0\\Lib\\importlib\\__init__.py',
   'PYMODULE'),
  ('importlib._abc',
   'C:\\Program '
   'Files\\WindowsApps\\PythonSoftwareFoundation.Python.3.12_3.12.1520.0_x64__qbz5n2kfra8p0\\Lib\\importlib\\_abc.py',
   'PYMODULE'),
  ('importlib._bootstrap',
   'C:\\Program '
   'Files\\WindowsApps\\PythonSoftwareFoundation.Python.3.12_3.12.1520.0_x64__qbz5n2kfra8p0\\Lib\\importlib\\_bootstrap.py',
   'PYMODULE'),
  ('importlib._bootstrap_external',
   'C:\\Program '
   'Files\\WindowsApps\\PythonSoftwareFoundation.Python.3.12_3.12.1520.0_x64__qbz5n2kfra8p0\\Lib\\importlib\\_bootstrap_external.py',
   'PYMODULE'),
  ('importlib.abc',
   'C:\\Program '
   'Files\\WindowsApps\\PythonSoftwareFoundation.Python.3.12_3.12.1520.0_x64__qbz5n2kfra8p0\\Lib\\importlib\\abc.py',
   'PYMODULE'),
  ('importlib.machinery',
   'C:\\Program '
   'Files\\WindowsApps\\PythonSoftwareFoundation.Python.3.12_3.12.1520.0_x64__qbz5n2kfra8p0\\Lib\\importlib\\machinery.py',
   'PYMODULE'),
  ('importlib.metadata',
   'C:\\Program '
   'Files\\WindowsApps\\PythonSoftwareFoundation.Python.3.12_3.12.1520.0_x64__qbz5n2kfra8p0\\Lib\\importlib\\metadata\\__init__.py',
   'PYMODULE'),
  ('importlib.metadata._adapters',
   'C:\\Program '
   'Files\\WindowsApps\\PythonSoftwareFoundation.Python.3.12_3.12.1520.0_x64__qbz5n2kfra8p0\\Lib\\importlib\\metadata\\_adapters.py',
   'PYMODULE'),
  ('importlib.metadata._collections',
   'C:\\Program '
   'Files\\WindowsApps\\PythonSoftwareFoundation.Python.3.12_3.12.1520.0_x64__qbz5n2kfra8p0\\Lib\\importlib\\metadata\\_collections.py',
   'PYMODULE'),
  ('importlib.metadata._functools',
   'C:\\Program '
   'Files\\WindowsApps\\PythonSoftwareFoundation.Python.3.12_3.12.1520.0_x64__qbz5n2kfra8p0\\Lib\\importlib\\metadata\\_functools.py',
   'PYMODULE'),
  ('importlib.metadata._itertools',
   'C:\\Program '
   'Files\\WindowsApps\\PythonSoftwareFoundation.Python.3.12_3.12.1520.0_x64__qbz5n2kfra8p0\\Lib\\importlib\\metadata\\_itertools.py',
   'PYMODULE'),
  ('importlib.metadata._meta',
   'C:\\Program '
   'Files\\WindowsApps\\PythonSoftwareFoundation.Python.3.12_3.12.1520.0_x64__qbz5n2kfra8p0\\Lib\\importlib\\metadata\\_meta.py',
   'PYMODULE'),
  ('importlib.metadata._text',
   'C:\\Program '
   'Files\\WindowsApps\\PythonSoftwareFoundation.Python.3.12_3.12.1520.0_x64__qbz5n2kfra8p0\\Lib\\importlib\\metadata\\_text.py',
   'PYMODULE'),
  ('importlib.readers',
   'C:\\Program '
   'Files\\WindowsApps\\PythonSoftwareFoundation.Python.3.12_3.12.1520.0_x64__qbz5n2kfra8p0\\Lib\\importlib\\readers.py',
   'PYMODULE'),
  ('importlib.resources',
   'C:\\Program '
   'Files\\WindowsApps\\PythonSoftwareFoundation.Python.3.12_3.12.1520.0_x64__qbz5n2kfra8p0\\Lib\\importlib\\resources\\__init__.py',
   'PYMODULE'),
  ('importlib.resources._adapters',
   'C:\\Program '
   'Files\\WindowsApps\\PythonSoftwareFoundation.Python.3.12_3.12.1520.0_x64__qbz5n2kfra8p0\\Lib\\importlib\\resources\\_adapters.py',
   'PYMODULE'),
  ('importlib.resources._common',
   'C:\\Program '
   'Files\\WindowsApps\\PythonSoftwareFoundation.Python.3.12_3.12.1520.0_x64__qbz5n2kfra8p0\\Lib\\importlib\\resources\\_common.py',
   'PYMODULE'),
  ('importlib.resources._itertools',
   'C:\\Program '
   'Files\\WindowsApps\\PythonSoftwareFoundation.Python.3.12_3.12.1520.0_x64__qbz5n2kfra8p0\\Lib\\importlib\\resources\\_itertools.py',
   'PYMODULE'),
  ('importlib.resources._legacy',
   'C:\\Program '
   'Files\\WindowsApps\\PythonSoftwareFoundation.Python.3.12_3.12.1520.0_x64__qbz5n2kfra8p0\\Lib\\importlib\\resources\\_legacy.py',
   'PYMODULE'),
  ('importlib.resources.abc',
   'C:\\Program '
   'Files\\WindowsApps\\PythonSoftwareFoundation.Python.3.12_3.12.1520.0_x64__qbz5n2kfra8p0\\Lib\\importlib\\resources\\abc.py',
   'PYMODULE'),
  ('importlib.resources.readers',
   'C:\\Program '
   'Files\\WindowsApps\\PythonSoftwareFoundation.Python.3.12_3.12.1520.0_x64__qbz5n2kfra8p0\\Lib\\importlib\\resources\\readers.py',
   'PYMODULE'),
  ('importlib.util',
   'C:\\Program '
   'Files\\WindowsApps\\PythonSoftwareFoundation.Python.3.12_3.12.1520.0_x64__qbz5n2kfra8p0\\Lib\\importlib\\util.py',
   'PYMODULE'),
  ('inspect',
   'C:\\Program '
   'Files\\WindowsApps\\PythonSoftwareFoundation.Python.3.12_3.12.1520.0_x64__qbz5n2kfra8p0\\Lib\\inspect.py',
   'PYMODULE'),
  ('ipaddress',
   'C:\\Program '
   'Files\\WindowsApps\\PythonSoftwareFoundation.Python.3.12_3.12.1520.0_x64__qbz5n2kfra8p0\\Lib\\ipaddress.py',
   'PYMODULE'),
  ('json',
   'C:\\Program '
   'Files\\WindowsApps\\PythonSoftwareFoundation.Python.3.12_3.12.1520.0_x64__qbz5n2kfra8p0\\Lib\\json\\__init__.py',
   'PYMODULE'),
  ('json.decoder',
   'C:\\Program '
   'Files\\WindowsApps\\PythonSoftwareFoundation.Python.3.12_3.12.1520.0_x64__qbz5n2kfra8p0\\Lib\\json\\decoder.py',
   'PYMODULE'),
  ('json.encoder',
   'C:\\Program '
   'Files\\WindowsApps\\PythonSoftwareFoundation.Python.3.12_3.12.1520.0_x64__qbz5n2kfra8p0\\Lib\\json\\encoder.py',
   'PYMODULE'),
  ('json.scanner',
   'C:\\Program '
   'Files\\WindowsApps\\PythonSoftwareFoundation.Python.3.12_3.12.1520.0_x64__qbz5n2kfra8p0\\Lib\\json\\scanner.py',
   'PYMODULE'),
  ('logging',
   'C:\\Program '
   'Files\\WindowsApps\\PythonSoftwareFoundation.Python.3.12_3.12.1520.0_x64__qbz5n2kfra8p0\\Lib\\logging\\__init__.py',
   'PYMODULE'),
  ('lzma',
   'C:\\Program '
   'Files\\WindowsApps\\PythonSoftwareFoundation.Python.3.12_3.12.1520.0_x64__qbz5n2kfra8p0\\Lib\\lzma.py',
   'PYMODULE'),
  ('main', '-', 'PYMODULE'),
  ('main.Cryptography', '-', 'PYMODULE'),
  ('main.Cryptography.AESpy',
   'C:\\Users\\Faheem '
   'Dev\\Desktop\\Git\\basicEncoder\\main\\Cryptography\\AESpy.py',
   'PYMODULE'),
  ('main.Cryptography.Caesarpy',
   'C:\\Users\\Faheem '
   'Dev\\Desktop\\Git\\basicEncoder\\main\\Cryptography\\Caesarpy.py',
   'PYMODULE'),
  ('main.Navigator', '-', 'PYMODULE'),
  ('main.Navigator.Banner',
   'C:\\Users\\Faheem '
   'Dev\\Desktop\\Git\\basicEncoder\\main\\Navigator\\Banner.py',
   'PYMODULE'),
  ('main.Navigator.Navigator',
   'C:\\Users\\Faheem '
   'Dev\\Desktop\\Git\\basicEncoder\\main\\Navigator\\Navigator.py',
   'PYMODULE'),
  ('main.Operations', '-', 'PYMODULE'),
  ('main.Operations.CaesarUI',
   'C:\\Users\\Faheem '
   'Dev\\Desktop\\Git\\basicEncoder\\main\\Operations\\CaesarUI.py',
   'PYMODULE'),
  ('main.Operations.RootAESUI',
   'C:\\Users\\Faheem '
   'Dev\\Desktop\\Git\\basicEncoder\\main\\Operations\\RootAESUI.py',
   'PYMODULE'),
  ('mimetypes',
   'C:\\Program '
   'Files\\WindowsApps\\PythonSoftwareFoundation.Python.3.12_3.12.1520.0_x64__qbz5n2kfra8p0\\Lib\\mimetypes.py',
   'PYMODULE'),
  ('multiprocessing',
   'C:\\Program '
   'Files\\WindowsApps\\PythonSoftwareFoundation.Python.3.12_3.12.1520.0_x64__qbz5n2kfra8p0\\Lib\\multiprocessing\\__init__.py',
   'PYMODULE'),
  ('multiprocessing.connection',
   'C:\\Program '
   'Files\\WindowsApps\\PythonSoftwareFoundation.Python.3.12_3.12.1520.0_x64__qbz5n2kfra8p0\\Lib\\multiprocessing\\connection.py',
   'PYMODULE'),
  ('multiprocessing.context',
   'C:\\Program '
   'Files\\WindowsApps\\PythonSoftwareFoundation.Python.3.12_3.12.1520.0_x64__qbz5n2kfra8p0\\Lib\\multiprocessing\\context.py',
   'PYMODULE'),
  ('multiprocessing.dummy',
   'C:\\Program '
   'Files\\WindowsApps\\PythonSoftwareFoundation.Python.3.12_3.12.1520.0_x64__qbz5n2kfra8p0\\Lib\\multiprocessing\\dummy\\__init__.py',
   'PYMODULE'),
  ('multiprocessing.dummy.connection',
   'C:\\Program '
   'Files\\WindowsApps\\PythonSoftwareFoundation.Python.3.12_3.12.1520.0_x64__qbz5n2kfra8p0\\Lib\\multiprocessing\\dummy\\connection.py',
   'PYMODULE'),
  ('multiprocessing.forkserver',
   'C:\\Program '
   'Files\\WindowsApps\\PythonSoftwareFoundation.Python.3.12_3.12.1520.0_x64__qbz5n2kfra8p0\\Lib\\multiprocessing\\forkserver.py',
   'PYMODULE'),
  ('multiprocessing.heap',
   'C:\\Program '
   'Files\\WindowsApps\\PythonSoftwareFoundation.Python.3.12_3.12.1520.0_x64__qbz5n2kfra8p0\\Lib\\multiprocessing\\heap.py',
   'PYMODULE'),
  ('multiprocessing.managers',
   'C:\\Program '
   'Files\\WindowsApps\\PythonSoftwareFoundation.Python.3.12_3.12.1520.0_x64__qbz5n2kfra8p0\\Lib\\multiprocessing\\managers.py',
   'PYMODULE'),
  ('multiprocessing.pool',
   'C:\\Program '
   'Files\\WindowsApps\\PythonSoftwareFoundation.Python.3.12_3.12.1520.0_x64__qbz5n2kfra8p0\\Lib\\multiprocessing\\pool.py',
   'PYMODULE'),
  ('multiprocessing.popen_fork',
   'C:\\Program '
   'Files\\WindowsApps\\PythonSoftwareFoundation.Python.3.12_3.12.1520.0_x64__qbz5n2kfra8p0\\Lib\\multiprocessing\\popen_fork.py',
   'PYMODULE'),
  ('multiprocessing.popen_forkserver',
   'C:\\Program '
   'Files\\WindowsApps\\PythonSoftwareFoundation.Python.3.12_3.12.1520.0_x64__qbz5n2kfra8p0\\Lib\\multiprocessing\\popen_forkserver.py',
   'PYMODULE'),
  ('multiprocessing.popen_spawn_posix',
   'C:\\Program '
   'Files\\WindowsApps\\PythonSoftwareFoundation.Python.3.12_3.12.1520.0_x64__qbz5n2kfra8p0\\Lib\\multiprocessing\\popen_spawn_posix.py',
   'PYMODULE'),
  ('multiprocessing.popen_spawn_win32',
   'C:\\Program '
   'Files\\WindowsApps\\PythonSoftwareFoundation.Python.3.12_3.12.1520.0_x64__qbz5n2kfra8p0\\Lib\\multiprocessing\\popen_spawn_win32.py',
   'PYMODULE'),
  ('multiprocessing.process',
   'C:\\Program '
   'Files\\WindowsApps\\PythonSoftwareFoundation.Python.3.12_3.12.1520.0_x64__qbz5n2kfra8p0\\Lib\\multiprocessing\\process.py',
   'PYMODULE'),
  ('multiprocessing.queues',
   'C:\\Program '
   'Files\\WindowsApps\\PythonSoftwareFoundation.Python.3.12_3.12.1520.0_x64__qbz5n2kfra8p0\\Lib\\multiprocessing\\queues.py',
   'PYMODULE'),
  ('multiprocessing.reduction',
   'C:\\Program '
   'Files\\WindowsApps\\PythonSoftwareFoundation.Python.3.12_3.12.1520.0_x64__qbz5n2kfra8p0\\Lib\\multiprocessing\\reduction.py',
   'PYMODULE'),
  ('multiprocessing.resource_sharer',
   'C:\\Program '
   'Files\\WindowsApps\\PythonSoftwareFoundation.Python.3.12_3.12.1520.0_x64__qbz5n2kfra8p0\\Lib\\multiprocessing\\resource_sharer.py',
   'PYMODULE'),
  ('multiprocessing.resource_tracker',
   'C:\\Program '
   'Files\\WindowsApps\\PythonSoftwareFoundation.Python.3.12_3.12.1520.0_x64__qbz5n2kfra8p0\\Lib\\multiprocessing\\resource_tracker.py',
   'PYMODULE'),
  ('multiprocessing.shared_memory',
   'C:\\Program '
   'Files\\WindowsApps\\PythonSoftwareFoundation.Python.3.12_3.12.1520.0_x64__qbz5n2kfra8p0\\Lib\\multiprocessing\\shared_memory.py',
   'PYMODULE'),
  ('multiprocessing.sharedctypes',
   'C:\\Program '
   'Files\\WindowsApps\\PythonSoftwareFoundation.Python.3.12_3.12.1520.0_x64__qbz5n2kfra8p0\\Lib\\multiprocessing\\sharedctypes.py',
   'PYMODULE'),
  ('multiprocessing.spawn',
   'C:\\Program '
   'Files\\WindowsApps\\PythonSoftwareFoundation.Python.3.12_3.12.1520.0_x64__qbz5n2kfra8p0\\Lib\\multiprocessing\\spawn.py',
   'PYMODULE'),
  ('multiprocessing.synchronize',
   'C:\\Program '
   'Files\\WindowsApps\\PythonSoftwareFoundation.Python.3.12_3.12.1520.0_x64__qbz5n2kfra8p0\\Lib\\multiprocessing\\synchronize.py',
   'PYMODULE'),
  ('multiprocessing.util',
   'C:\\Program '
   'Files\\WindowsApps\\PythonSoftwareFoundation.Python.3.12_3.12.1520.0_x64__qbz5n2kfra8p0\\Lib\\multiprocessing\\util.py',
   'PYMODULE'),
  ('netrc',
   'C:\\Program '
   'Files\\WindowsApps\\PythonSoftwareFoundation.Python.3.12_3.12.1520.0_x64__qbz5n2kfra8p0\\Lib\\netrc.py',
   'PYMODULE'),
  ('nturl2path',
   'C:\\Program '
   'Files\\WindowsApps\\PythonSoftwareFoundation.Python.3.12_3.12.1520.0_x64__qbz5n2kfra8p0\\Lib\\nturl2path.py',
   'PYMODULE'),
  ('numbers',
   'C:\\Program '
   'Files\\WindowsApps\\PythonSoftwareFoundation.Python.3.12_3.12.1520.0_x64__qbz5n2kfra8p0\\Lib\\numbers.py',
   'PYMODULE'),
  ('opcode',
   'C:\\Program '
   'Files\\WindowsApps\\PythonSoftwareFoundation.Python.3.12_3.12.1520.0_x64__qbz5n2kfra8p0\\Lib\\opcode.py',
   'PYMODULE'),
  ('optparse',
   'C:\\Program '
   'Files\\WindowsApps\\PythonSoftwareFoundation.Python.3.12_3.12.1520.0_x64__qbz5n2kfra8p0\\Lib\\optparse.py',
   'PYMODULE'),
  ('packaging',
   'C:\\Users\\Faheem '
   'Dev\\Desktop\\Git\\basicEncoder\\.venv\\Lib\\site-packages\\packaging\\__init__.py',
   'PYMODULE'),
  ('packaging._elffile',
   'C:\\Users\\Faheem '
   'Dev\\Desktop\\Git\\basicEncoder\\.venv\\Lib\\site-packages\\packaging\\_elffile.py',
   'PYMODULE'),
  ('packaging._manylinux',
   'C:\\Users\\Faheem '
   'Dev\\Desktop\\Git\\basicEncoder\\.venv\\Lib\\site-packages\\packaging\\_manylinux.py',
   'PYMODULE'),
  ('packaging._musllinux',
   'C:\\Users\\Faheem '
   'Dev\\Desktop\\Git\\basicEncoder\\.venv\\Lib\\site-packages\\packaging\\_musllinux.py',
   'PYMODULE'),
  ('packaging._parser',
   'C:\\Users\\Faheem '
   'Dev\\Desktop\\Git\\basicEncoder\\.venv\\Lib\\site-packages\\packaging\\_parser.py',
   'PYMODULE'),
  ('packaging._structures',
   'C:\\Users\\Faheem '
   'Dev\\Desktop\\Git\\basicEncoder\\.venv\\Lib\\site-packages\\packaging\\_structures.py',
   'PYMODULE'),
  ('packaging._tokenizer',
   'C:\\Users\\Faheem '
   'Dev\\Desktop\\Git\\basicEncoder\\.venv\\Lib\\site-packages\\packaging\\_tokenizer.py',
   'PYMODULE'),
  ('packaging.markers',
   'C:\\Users\\Faheem '
   'Dev\\Desktop\\Git\\basicEncoder\\.venv\\Lib\\site-packages\\packaging\\markers.py',
   'PYMODULE'),
  ('packaging.metadata',
   'C:\\Users\\Faheem '
   'Dev\\Desktop\\Git\\basicEncoder\\.venv\\Lib\\site-packages\\packaging\\metadata.py',
   'PYMODULE'),
  ('packaging.requirements',
   'C:\\Users\\Faheem '
   'Dev\\Desktop\\Git\\basicEncoder\\.venv\\Lib\\site-packages\\packaging\\requirements.py',
   'PYMODULE'),
  ('packaging.specifiers',
   'C:\\Users\\Faheem '
   'Dev\\Desktop\\Git\\basicEncoder\\.venv\\Lib\\site-packages\\packaging\\specifiers.py',
   'PYMODULE'),
  ('packaging.tags',
   'C:\\Users\\Faheem '
   'Dev\\Desktop\\Git\\basicEncoder\\.venv\\Lib\\site-packages\\packaging\\tags.py',
   'PYMODULE'),
  ('packaging.utils',
   'C:\\Users\\Faheem '
   'Dev\\Desktop\\Git\\basicEncoder\\.venv\\Lib\\site-packages\\packaging\\utils.py',
   'PYMODULE'),
  ('packaging.version',
   'C:\\Users\\Faheem '
   'Dev\\Desktop\\Git\\basicEncoder\\.venv\\Lib\\site-packages\\packaging\\version.py',
   'PYMODULE'),
  ('pathlib',
   'C:\\Program '
   'Files\\WindowsApps\\PythonSoftwareFoundation.Python.3.12_3.12.1520.0_x64__qbz5n2kfra8p0\\Lib\\pathlib.py',
   'PYMODULE'),
  ('pickle',
   'C:\\Program '
   'Files\\WindowsApps\\PythonSoftwareFoundation.Python.3.12_3.12.1520.0_x64__qbz5n2kfra8p0\\Lib\\pickle.py',
   'PYMODULE'),
  ('pkg_resources',
   'C:\\Users\\Faheem '
   'Dev\\Desktop\\Git\\basicEncoder\\.venv\\Lib\\site-packages\\pkg_resources\\__init__.py',
   'PYMODULE'),
  ('pkg_resources._vendor',
   'C:\\Users\\Faheem '
   'Dev\\Desktop\\Git\\basicEncoder\\.venv\\Lib\\site-packages\\pkg_resources\\_vendor\\__init__.py',
   'PYMODULE'),
  ('pkg_resources._vendor.importlib_resources',
   'C:\\Users\\Faheem '
   'Dev\\Desktop\\Git\\basicEncoder\\.venv\\Lib\\site-packages\\pkg_resources\\_vendor\\importlib_resources\\__init__.py',
   'PYMODULE'),
  ('pkg_resources._vendor.importlib_resources._adapters',
   'C:\\Users\\Faheem '
   'Dev\\Desktop\\Git\\basicEncoder\\.venv\\Lib\\site-packages\\pkg_resources\\_vendor\\importlib_resources\\_adapters.py',
   'PYMODULE'),
  ('pkg_resources._vendor.importlib_resources._common',
   'C:\\Users\\Faheem '
   'Dev\\Desktop\\Git\\basicEncoder\\.venv\\Lib\\site-packages\\pkg_resources\\_vendor\\importlib_resources\\_common.py',
   'PYMODULE'),
  ('pkg_resources._vendor.importlib_resources._compat',
   'C:\\Users\\Faheem '
   'Dev\\Desktop\\Git\\basicEncoder\\.venv\\Lib\\site-packages\\pkg_resources\\_vendor\\importlib_resources\\_compat.py',
   'PYMODULE'),
  ('pkg_resources._vendor.importlib_resources._itertools',
   'C:\\Users\\Faheem '
   'Dev\\Desktop\\Git\\basicEncoder\\.venv\\Lib\\site-packages\\pkg_resources\\_vendor\\importlib_resources\\_itertools.py',
   'PYMODULE'),
  ('pkg_resources._vendor.importlib_resources._legacy',
   'C:\\Users\\Faheem '
   'Dev\\Desktop\\Git\\basicEncoder\\.venv\\Lib\\site-packages\\pkg_resources\\_vendor\\importlib_resources\\_legacy.py',
   'PYMODULE'),
  ('pkg_resources._vendor.importlib_resources.abc',
   'C:\\Users\\Faheem '
   'Dev\\Desktop\\Git\\basicEncoder\\.venv\\Lib\\site-packages\\pkg_resources\\_vendor\\importlib_resources\\abc.py',
   'PYMODULE'),
  ('pkg_resources._vendor.importlib_resources.readers',
   'C:\\Users\\Faheem '
   'Dev\\Desktop\\Git\\basicEncoder\\.venv\\Lib\\site-packages\\pkg_resources\\_vendor\\importlib_resources\\readers.py',
   'PYMODULE'),
  ('pkg_resources._vendor.importlib_resources.simple',
   'C:\\Users\\Faheem '
   'Dev\\Desktop\\Git\\basicEncoder\\.venv\\Lib\\site-packages\\pkg_resources\\_vendor\\importlib_resources\\simple.py',
   'PYMODULE'),
  ('pkg_resources._vendor.jaraco',
   'C:\\Users\\Faheem '
   'Dev\\Desktop\\Git\\basicEncoder\\.venv\\Lib\\site-packages\\pkg_resources\\_vendor\\jaraco\\__init__.py',
   'PYMODULE'),
  ('pkg_resources._vendor.jaraco.context',
   'C:\\Users\\Faheem '
   'Dev\\Desktop\\Git\\basicEncoder\\.venv\\Lib\\site-packages\\pkg_resources\\_vendor\\jaraco\\context.py',
   'PYMODULE'),
  ('pkg_resources._vendor.jaraco.functools',
   'C:\\Users\\Faheem '
   'Dev\\Desktop\\Git\\basicEncoder\\.venv\\Lib\\site-packages\\pkg_resources\\_vendor\\jaraco\\functools.py',
   'PYMODULE'),
  ('pkg_resources._vendor.jaraco.text',
   'C:\\Users\\Faheem '
   'Dev\\Desktop\\Git\\basicEncoder\\.venv\\Lib\\site-packages\\pkg_resources\\_vendor\\jaraco\\text\\__init__.py',
   'PYMODULE'),
  ('pkg_resources._vendor.more_itertools',
   'C:\\Users\\Faheem '
   'Dev\\Desktop\\Git\\basicEncoder\\.venv\\Lib\\site-packages\\pkg_resources\\_vendor\\more_itertools\\__init__.py',
   'PYMODULE'),
  ('pkg_resources._vendor.more_itertools.more',
   'C:\\Users\\Faheem '
   'Dev\\Desktop\\Git\\basicEncoder\\.venv\\Lib\\site-packages\\pkg_resources\\_vendor\\more_itertools\\more.py',
   'PYMODULE'),
  ('pkg_resources._vendor.more_itertools.recipes',
   'C:\\Users\\Faheem '
   'Dev\\Desktop\\Git\\basicEncoder\\.venv\\Lib\\site-packages\\pkg_resources\\_vendor\\more_itertools\\recipes.py',
   'PYMODULE'),
  ('pkg_resources._vendor.packaging',
   'C:\\Users\\Faheem '
   'Dev\\Desktop\\Git\\basicEncoder\\.venv\\Lib\\site-packages\\pkg_resources\\_vendor\\packaging\\__init__.py',
   'PYMODULE'),
  ('pkg_resources._vendor.packaging._elffile',
   'C:\\Users\\Faheem '
   'Dev\\Desktop\\Git\\basicEncoder\\.venv\\Lib\\site-packages\\pkg_resources\\_vendor\\packaging\\_elffile.py',
   'PYMODULE'),
  ('pkg_resources._vendor.packaging._manylinux',
   'C:\\Users\\Faheem '
   'Dev\\Desktop\\Git\\basicEncoder\\.venv\\Lib\\site-packages\\pkg_resources\\_vendor\\packaging\\_manylinux.py',
   'PYMODULE'),
  ('pkg_resources._vendor.packaging._musllinux',
   'C:\\Users\\Faheem '
   'Dev\\Desktop\\Git\\basicEncoder\\.venv\\Lib\\site-packages\\pkg_resources\\_vendor\\packaging\\_musllinux.py',
   'PYMODULE'),
  ('pkg_resources._vendor.packaging._parser',
   'C:\\Users\\Faheem '
   'Dev\\Desktop\\Git\\basicEncoder\\.venv\\Lib\\site-packages\\pkg_resources\\_vendor\\packaging\\_parser.py',
   'PYMODULE'),
  ('pkg_resources._vendor.packaging._structures',
   'C:\\Users\\Faheem '
   'Dev\\Desktop\\Git\\basicEncoder\\.venv\\Lib\\site-packages\\pkg_resources\\_vendor\\packaging\\_structures.py',
   'PYMODULE'),
  ('pkg_resources._vendor.packaging._tokenizer',
   'C:\\Users\\Faheem '
   'Dev\\Desktop\\Git\\basicEncoder\\.venv\\Lib\\site-packages\\pkg_resources\\_vendor\\packaging\\_tokenizer.py',
   'PYMODULE'),
  ('pkg_resources._vendor.packaging.markers',
   'C:\\Users\\Faheem '
   'Dev\\Desktop\\Git\\basicEncoder\\.venv\\Lib\\site-packages\\pkg_resources\\_vendor\\packaging\\markers.py',
   'PYMODULE'),
  ('pkg_resources._vendor.packaging.metadata',
   'C:\\Users\\Faheem '
   'Dev\\Desktop\\Git\\basicEncoder\\.venv\\Lib\\site-packages\\pkg_resources\\_vendor\\packaging\\metadata.py',
   'PYMODULE'),
  ('pkg_resources._vendor.packaging.requirements',
   'C:\\Users\\Faheem '
   'Dev\\Desktop\\Git\\basicEncoder\\.venv\\Lib\\site-packages\\pkg_resources\\_vendor\\packaging\\requirements.py',
   'PYMODULE'),
  ('pkg_resources._vendor.packaging.specifiers',
   'C:\\Users\\Faheem '
   'Dev\\Desktop\\Git\\basicEncoder\\.venv\\Lib\\site-packages\\pkg_resources\\_vendor\\packaging\\specifiers.py',
   'PYMODULE'),
  ('pkg_resources._vendor.packaging.tags',
   'C:\\Users\\Faheem '
   'Dev\\Desktop\\Git\\basicEncoder\\.venv\\Lib\\site-packages\\pkg_resources\\_vendor\\packaging\\tags.py',
   'PYMODULE'),
  ('pkg_resources._vendor.packaging.utils',
   'C:\\Users\\Faheem '
   'Dev\\Desktop\\Git\\basicEncoder\\.venv\\Lib\\site-packages\\pkg_resources\\_vendor\\packaging\\utils.py',
   'PYMODULE'),
  ('pkg_resources._vendor.packaging.version',
   'C:\\Users\\Faheem '
   'Dev\\Desktop\\Git\\basicEncoder\\.venv\\Lib\\site-packages\\pkg_resources\\_vendor\\packaging\\version.py',
   'PYMODULE'),
  ('pkg_resources._vendor.platformdirs',
   'C:\\Users\\Faheem '
   'Dev\\Desktop\\Git\\basicEncoder\\.venv\\Lib\\site-packages\\pkg_resources\\_vendor\\platformdirs\\__init__.py',
   'PYMODULE'),
  ('pkg_resources._vendor.platformdirs.__main__',
   'C:\\Users\\Faheem '
   'Dev\\Desktop\\Git\\basicEncoder\\.venv\\Lib\\site-packages\\pkg_resources\\_vendor\\platformdirs\\__main__.py',
   'PYMODULE'),
  ('pkg_resources._vendor.platformdirs.android',
   'C:\\Users\\Faheem '
   'Dev\\Desktop\\Git\\basicEncoder\\.venv\\Lib\\site-packages\\pkg_resources\\_vendor\\platformdirs\\android.py',
   'PYMODULE'),
  ('pkg_resources._vendor.platformdirs.api',
   'C:\\Users\\Faheem '
   'Dev\\Desktop\\Git\\basicEncoder\\.venv\\Lib\\site-packages\\pkg_resources\\_vendor\\platformdirs\\api.py',
   'PYMODULE'),
  ('pkg_resources._vendor.platformdirs.macos',
   'C:\\Users\\Faheem '
   'Dev\\Desktop\\Git\\basicEncoder\\.venv\\Lib\\site-packages\\pkg_resources\\_vendor\\platformdirs\\macos.py',
   'PYMODULE'),
  ('pkg_resources._vendor.platformdirs.unix',
   'C:\\Users\\Faheem '
   'Dev\\Desktop\\Git\\basicEncoder\\.venv\\Lib\\site-packages\\pkg_resources\\_vendor\\platformdirs\\unix.py',
   'PYMODULE'),
  ('pkg_resources._vendor.platformdirs.version',
   'C:\\Users\\Faheem '
   'Dev\\Desktop\\Git\\basicEncoder\\.venv\\Lib\\site-packages\\pkg_resources\\_vendor\\platformdirs\\version.py',
   'PYMODULE'),
  ('pkg_resources._vendor.platformdirs.windows',
   'C:\\Users\\Faheem '
   'Dev\\Desktop\\Git\\basicEncoder\\.venv\\Lib\\site-packages\\pkg_resources\\_vendor\\platformdirs\\windows.py',
   'PYMODULE'),
  ('pkg_resources._vendor.typing_extensions',
   'C:\\Users\\Faheem '
   'Dev\\Desktop\\Git\\basicEncoder\\.venv\\Lib\\site-packages\\pkg_resources\\_vendor\\typing_extensions.py',
   'PYMODULE'),
  ('pkg_resources._vendor.zipp',
   'C:\\Users\\Faheem '
   'Dev\\Desktop\\Git\\basicEncoder\\.venv\\Lib\\site-packages\\pkg_resources\\_vendor\\zipp.py',
   'PYMODULE'),
  ('pkg_resources.extern',
   'C:\\Users\\Faheem '
   'Dev\\Desktop\\Git\\basicEncoder\\.venv\\Lib\\site-packages\\pkg_resources\\extern\\__init__.py',
   'PYMODULE'),
  ('pkgutil',
   'C:\\Program '
   'Files\\WindowsApps\\PythonSoftwareFoundation.Python.3.12_3.12.1520.0_x64__qbz5n2kfra8p0\\Lib\\pkgutil.py',
   'PYMODULE'),
  ('platform',
   'C:\\Program '
   'Files\\WindowsApps\\PythonSoftwareFoundation.Python.3.12_3.12.1520.0_x64__qbz5n2kfra8p0\\Lib\\platform.py',
   'PYMODULE'),
  ('plistlib',
   'C:\\Program '
   'Files\\WindowsApps\\PythonSoftwareFoundation.Python.3.12_3.12.1520.0_x64__qbz5n2kfra8p0\\Lib\\plistlib.py',
   'PYMODULE'),
  ('pprint',
   'C:\\Program '
   'Files\\WindowsApps\\PythonSoftwareFoundation.Python.3.12_3.12.1520.0_x64__qbz5n2kfra8p0\\Lib\\pprint.py',
   'PYMODULE'),
  ('py_compile',
   'C:\\Program '
   'Files\\WindowsApps\\PythonSoftwareFoundation.Python.3.12_3.12.1520.0_x64__qbz5n2kfra8p0\\Lib\\py_compile.py',
   'PYMODULE'),
  ('pycparser',
   'C:\\Users\\Faheem '
   'Dev\\Desktop\\Git\\basicEncoder\\.venv\\Lib\\site-packages\\pycparser\\__init__.py',
   'PYMODULE'),
  ('pycparser.ast_transforms',
   'C:\\Users\\Faheem '
   'Dev\\Desktop\\Git\\basicEncoder\\.venv\\Lib\\site-packages\\pycparser\\ast_transforms.py',
   'PYMODULE'),
  ('pycparser.c_ast',
   'C:\\Users\\Faheem '
   'Dev\\Desktop\\Git\\basicEncoder\\.venv\\Lib\\site-packages\\pycparser\\c_ast.py',
   'PYMODULE'),
  ('pycparser.c_lexer',
   'C:\\Users\\Faheem '
   'Dev\\Desktop\\Git\\basicEncoder\\.venv\\Lib\\site-packages\\pycparser\\c_lexer.py',
   'PYMODULE'),
  ('pycparser.c_parser',
   'C:\\Users\\Faheem '
   'Dev\\Desktop\\Git\\basicEncoder\\.venv\\Lib\\site-packages\\pycparser\\c_parser.py',
   'PYMODULE'),
  ('pycparser.lextab',
   'C:\\Users\\Faheem '
   'Dev\\Desktop\\Git\\basicEncoder\\.venv\\Lib\\site-packages\\pycparser\\lextab.py',
   'PYMODULE'),
  ('pycparser.ply',
   'C:\\Users\\Faheem '
   'Dev\\Desktop\\Git\\basicEncoder\\.venv\\Lib\\site-packages\\pycparser\\ply\\__init__.py',
   'PYMODULE'),
  ('pycparser.ply.lex',
   'C:\\Users\\Faheem '
   'Dev\\Desktop\\Git\\basicEncoder\\.venv\\Lib\\site-packages\\pycparser\\ply\\lex.py',
   'PYMODULE'),
  ('pycparser.ply.yacc',
   'C:\\Users\\Faheem '
   'Dev\\Desktop\\Git\\basicEncoder\\.venv\\Lib\\site-packages\\pycparser\\ply\\yacc.py',
   'PYMODULE'),
  ('pycparser.plyparser',
   'C:\\Users\\Faheem '
   'Dev\\Desktop\\Git\\basicEncoder\\.venv\\Lib\\site-packages\\pycparser\\plyparser.py',
   'PYMODULE'),
  ('pycparser.yacctab',
   'C:\\Users\\Faheem '
   'Dev\\Desktop\\Git\\basicEncoder\\.venv\\Lib\\site-packages\\pycparser\\yacctab.py',
   'PYMODULE'),
  ('pydoc',
   'C:\\Program '
   'Files\\WindowsApps\\PythonSoftwareFoundation.Python.3.12_3.12.1520.0_x64__qbz5n2kfra8p0\\Lib\\pydoc.py',
   'PYMODULE'),
  ('pydoc_data',
   'C:\\Program '
   'Files\\WindowsApps\\PythonSoftwareFoundation.Python.3.12_3.12.1520.0_x64__qbz5n2kfra8p0\\Lib\\pydoc_data\\__init__.py',
   'PYMODULE'),
  ('pydoc_data.topics',
   'C:\\Program '
   'Files\\WindowsApps\\PythonSoftwareFoundation.Python.3.12_3.12.1520.0_x64__qbz5n2kfra8p0\\Lib\\pydoc_data\\topics.py',
   'PYMODULE'),
  ('pyfiglet',
   'C:\\Users\\Faheem '
   'Dev\\Desktop\\Git\\basicEncoder\\.venv\\Lib\\site-packages\\pyfiglet\\__init__.py',
   'PYMODULE'),
  ('pyfiglet.fonts',
   'C:\\Users\\Faheem '
   'Dev\\Desktop\\Git\\basicEncoder\\.venv\\Lib\\site-packages\\pyfiglet\\fonts\\__init__.py',
   'PYMODULE'),
  ('pyfiglet.version',
   'C:\\Users\\Faheem '
   'Dev\\Desktop\\Git\\basicEncoder\\.venv\\Lib\\site-packages\\pyfiglet\\version.py',
   'PYMODULE'),
  ('queue',
   'C:\\Program '
   'Files\\WindowsApps\\PythonSoftwareFoundation.Python.3.12_3.12.1520.0_x64__qbz5n2kfra8p0\\Lib\\queue.py',
   'PYMODULE'),
  ('quopri',
   'C:\\Program '
   'Files\\WindowsApps\\PythonSoftwareFoundation.Python.3.12_3.12.1520.0_x64__qbz5n2kfra8p0\\Lib\\quopri.py',
   'PYMODULE'),
  ('random',
   'C:\\Program '
   'Files\\WindowsApps\\PythonSoftwareFoundation.Python.3.12_3.12.1520.0_x64__qbz5n2kfra8p0\\Lib\\random.py',
   'PYMODULE'),
  ('rlcompleter',
   'C:\\Program '
   'Files\\WindowsApps\\PythonSoftwareFoundation.Python.3.12_3.12.1520.0_x64__qbz5n2kfra8p0\\Lib\\rlcompleter.py',
   'PYMODULE'),
  ('runpy',
   'C:\\Program '
   'Files\\WindowsApps\\PythonSoftwareFoundation.Python.3.12_3.12.1520.0_x64__qbz5n2kfra8p0\\Lib\\runpy.py',
   'PYMODULE'),
  ('secrets',
   'C:\\Program '
   'Files\\WindowsApps\\PythonSoftwareFoundation.Python.3.12_3.12.1520.0_x64__qbz5n2kfra8p0\\Lib\\secrets.py',
   'PYMODULE'),
  ('selectors',
   'C:\\Program '
   'Files\\WindowsApps\\PythonSoftwareFoundation.Python.3.12_3.12.1520.0_x64__qbz5n2kfra8p0\\Lib\\selectors.py',
   'PYMODULE'),
  ('setuptools',
   'C:\\Users\\Faheem '
   'Dev\\Desktop\\Git\\basicEncoder\\.venv\\Lib\\site-packages\\setuptools\\__init__.py',
   'PYMODULE'),
  ('setuptools._core_metadata',
   'C:\\Users\\Faheem '
   'Dev\\Desktop\\Git\\basicEncoder\\.venv\\Lib\\site-packages\\setuptools\\_core_metadata.py',
   'PYMODULE'),
  ('setuptools._distutils',
   'C:\\Users\\Faheem '
   'Dev\\Desktop\\Git\\basicEncoder\\.venv\\Lib\\site-packages\\setuptools\\_distutils\\__init__.py',
   'PYMODULE'),
  ('setuptools._distutils._collections',
   'C:\\Users\\Faheem '
   'Dev\\Desktop\\Git\\basicEncoder\\.venv\\Lib\\site-packages\\setuptools\\_distutils\\_collections.py',
   'PYMODULE'),
  ('setuptools._distutils._functools',
   'C:\\Users\\Faheem '
   'Dev\\Desktop\\Git\\basicEncoder\\.venv\\Lib\\site-packages\\setuptools\\_distutils\\_functools.py',
   'PYMODULE'),
  ('setuptools._distutils._log',
   'C:\\Users\\Faheem '
   'Dev\\Desktop\\Git\\basicEncoder\\.venv\\Lib\\site-packages\\setuptools\\_distutils\\_log.py',
   'PYMODULE'),
  ('setuptools._distutils._macos_compat',
   'C:\\Users\\Faheem '
   'Dev\\Desktop\\Git\\basicEncoder\\.venv\\Lib\\site-packages\\setuptools\\_distutils\\_macos_compat.py',
   'PYMODULE'),
  ('setuptools._distutils._msvccompiler',
   'C:\\Users\\Faheem '
   'Dev\\Desktop\\Git\\basicEncoder\\.venv\\Lib\\site-packages\\setuptools\\_distutils\\_msvccompiler.py',
   'PYMODULE'),
  ('setuptools._distutils.archive_util',
   'C:\\Users\\Faheem '
   'Dev\\Desktop\\Git\\basicEncoder\\.venv\\Lib\\site-packages\\setuptools\\_distutils\\archive_util.py',
   'PYMODULE'),
  ('setuptools._distutils.bcppcompiler',
   'C:\\Users\\Faheem '
   'Dev\\Desktop\\Git\\basicEncoder\\.venv\\Lib\\site-packages\\setuptools\\_distutils\\bcppcompiler.py',
   'PYMODULE'),
  ('setuptools._distutils.ccompiler',
   'C:\\Users\\Faheem '
   'Dev\\Desktop\\Git\\basicEncoder\\.venv\\Lib\\site-packages\\setuptools\\_distutils\\ccompiler.py',
   'PYMODULE'),
  ('setuptools._distutils.cmd',
   'C:\\Users\\Faheem '
   'Dev\\Desktop\\Git\\basicEncoder\\.venv\\Lib\\site-packages\\setuptools\\_distutils\\cmd.py',
   'PYMODULE'),
  ('setuptools._distutils.command',
   'C:\\Users\\Faheem '
   'Dev\\Desktop\\Git\\basicEncoder\\.venv\\Lib\\site-packages\\setuptools\\_distutils\\command\\__init__.py',
   'PYMODULE'),
  ('setuptools._distutils.command._framework_compat',
   'C:\\Users\\Faheem '
   'Dev\\Desktop\\Git\\basicEncoder\\.venv\\Lib\\site-packages\\setuptools\\_distutils\\command\\_framework_compat.py',
   'PYMODULE'),
  ('setuptools._distutils.command.bdist',
   'C:\\Users\\Faheem '
   'Dev\\Desktop\\Git\\basicEncoder\\.venv\\Lib\\site-packages\\setuptools\\_distutils\\command\\bdist.py',
   'PYMODULE'),
  ('setuptools._distutils.command.bdist_dumb',
   'C:\\Users\\Faheem '
   'Dev\\Desktop\\Git\\basicEncoder\\.venv\\Lib\\site-packages\\setuptools\\_distutils\\command\\bdist_dumb.py',
   'PYMODULE'),
  ('setuptools._distutils.command.bdist_rpm',
   'C:\\Users\\Faheem '
   'Dev\\Desktop\\Git\\basicEncoder\\.venv\\Lib\\site-packages\\setuptools\\_distutils\\command\\bdist_rpm.py',
   'PYMODULE'),
  ('setuptools._distutils.command.build',
   'C:\\Users\\Faheem '
   'Dev\\Desktop\\Git\\basicEncoder\\.venv\\Lib\\site-packages\\setuptools\\_distutils\\command\\build.py',
   'PYMODULE'),
  ('setuptools._distutils.command.build_clib',
   'C:\\Users\\Faheem '
   'Dev\\Desktop\\Git\\basicEncoder\\.venv\\Lib\\site-packages\\setuptools\\_distutils\\command\\build_clib.py',
   'PYMODULE'),
  ('setuptools._distutils.command.build_ext',
   'C:\\Users\\Faheem '
   'Dev\\Desktop\\Git\\basicEncoder\\.venv\\Lib\\site-packages\\setuptools\\_distutils\\command\\build_ext.py',
   'PYMODULE'),
  ('setuptools._distutils.command.build_py',
   'C:\\Users\\Faheem '
   'Dev\\Desktop\\Git\\basicEncoder\\.venv\\Lib\\site-packages\\setuptools\\_distutils\\command\\build_py.py',
   'PYMODULE'),
  ('setuptools._distutils.command.build_scripts',
   'C:\\Users\\Faheem '
   'Dev\\Desktop\\Git\\basicEncoder\\.venv\\Lib\\site-packages\\setuptools\\_distutils\\command\\build_scripts.py',
   'PYMODULE'),
  ('setuptools._distutils.command.check',
   'C:\\Users\\Faheem '
   'Dev\\Desktop\\Git\\basicEncoder\\.venv\\Lib\\site-packages\\setuptools\\_distutils\\command\\check.py',
   'PYMODULE'),
  ('setuptools._distutils.command.clean',
   'C:\\Users\\Faheem '
   'Dev\\Desktop\\Git\\basicEncoder\\.venv\\Lib\\site-packages\\setuptools\\_distutils\\command\\clean.py',
   'PYMODULE'),
  ('setuptools._distutils.command.config',
   'C:\\Users\\Faheem '
   'Dev\\Desktop\\Git\\basicEncoder\\.venv\\Lib\\site-packages\\setuptools\\_distutils\\command\\config.py',
   'PYMODULE'),
  ('setuptools._distutils.command.install',
   'C:\\Users\\Faheem '
   'Dev\\Desktop\\Git\\basicEncoder\\.venv\\Lib\\site-packages\\setuptools\\_distutils\\command\\install.py',
   'PYMODULE'),
  ('setuptools._distutils.command.install_data',
   'C:\\Users\\Faheem '
   'Dev\\Desktop\\Git\\basicEncoder\\.venv\\Lib\\site-packages\\setuptools\\_distutils\\command\\install_data.py',
   'PYMODULE'),
  ('setuptools._distutils.command.install_egg_info',
   'C:\\Users\\Faheem '
   'Dev\\Desktop\\Git\\basicEncoder\\.venv\\Lib\\site-packages\\setuptools\\_distutils\\command\\install_egg_info.py',
   'PYMODULE'),
  ('setuptools._distutils.command.install_headers',
   'C:\\Users\\Faheem '
   'Dev\\Desktop\\Git\\basicEncoder\\.venv\\Lib\\site-packages\\setuptools\\_distutils\\command\\install_headers.py',
   'PYMODULE'),
  ('setuptools._distutils.command.install_lib',
   'C:\\Users\\Faheem '
   'Dev\\Desktop\\Git\\basicEncoder\\.venv\\Lib\\site-packages\\setuptools\\_distutils\\command\\install_lib.py',
   'PYMODULE'),
  ('setuptools._distutils.command.install_scripts',
   'C:\\Users\\Faheem '
   'Dev\\Desktop\\Git\\basicEncoder\\.venv\\Lib\\site-packages\\setuptools\\_distutils\\command\\install_scripts.py',
   'PYMODULE'),
  ('setuptools._distutils.command.py37compat',
   'C:\\Users\\Faheem '
   'Dev\\Desktop\\Git\\basicEncoder\\.venv\\Lib\\site-packages\\setuptools\\_distutils\\command\\py37compat.py',
   'PYMODULE'),
  ('setuptools._distutils.command.register',
   'C:\\Users\\Faheem '
   'Dev\\Desktop\\Git\\basicEncoder\\.venv\\Lib\\site-packages\\setuptools\\_distutils\\command\\register.py',
   'PYMODULE'),
  ('setuptools._distutils.command.sdist',
   'C:\\Users\\Faheem '
   'Dev\\Desktop\\Git\\basicEncoder\\.venv\\Lib\\site-packages\\setuptools\\_distutils\\command\\sdist.py',
   'PYMODULE'),
  ('setuptools._distutils.command.upload',
   'C:\\Users\\Faheem '
   'Dev\\Desktop\\Git\\basicEncoder\\.venv\\Lib\\site-packages\\setuptools\\_distutils\\command\\upload.py',
   'PYMODULE'),
  ('setuptools._distutils.config',
   'C:\\Users\\Faheem '
   'Dev\\Desktop\\Git\\basicEncoder\\.venv\\Lib\\site-packages\\setuptools\\_distutils\\config.py',
   'PYMODULE'),
  ('setuptools._distutils.core',
   'C:\\Users\\Faheem '
   'Dev\\Desktop\\Git\\basicEncoder\\.venv\\Lib\\site-packages\\setuptools\\_distutils\\core.py',
   'PYMODULE'),
  ('setuptools._distutils.cygwinccompiler',
   'C:\\Users\\Faheem '
   'Dev\\Desktop\\Git\\basicEncoder\\.venv\\Lib\\site-packages\\setuptools\\_distutils\\cygwinccompiler.py',
   'PYMODULE'),
  ('setuptools._distutils.debug',
   'C:\\Users\\Faheem '
   'Dev\\Desktop\\Git\\basicEncoder\\.venv\\Lib\\site-packages\\setuptools\\_distutils\\debug.py',
   'PYMODULE'),
  ('setuptools._distutils.dep_util',
   'C:\\Users\\Faheem '
   'Dev\\Desktop\\Git\\basicEncoder\\.venv\\Lib\\site-packages\\setuptools\\_distutils\\dep_util.py',
   'PYMODULE'),
  ('setuptools._distutils.dir_util',
   'C:\\Users\\Faheem '
   'Dev\\Desktop\\Git\\basicEncoder\\.venv\\Lib\\site-packages\\setuptools\\_distutils\\dir_util.py',
   'PYMODULE'),
  ('setuptools._distutils.dist',
   'C:\\Users\\Faheem '
   'Dev\\Desktop\\Git\\basicEncoder\\.venv\\Lib\\site-packages\\setuptools\\_distutils\\dist.py',
   'PYMODULE'),
  ('setuptools._distutils.errors',
   'C:\\Users\\Faheem '
   'Dev\\Desktop\\Git\\basicEncoder\\.venv\\Lib\\site-packages\\setuptools\\_distutils\\errors.py',
   'PYMODULE'),
  ('setuptools._distutils.extension',
   'C:\\Users\\Faheem '
   'Dev\\Desktop\\Git\\basicEncoder\\.venv\\Lib\\site-packages\\setuptools\\_distutils\\extension.py',
   'PYMODULE'),
  ('setuptools._distutils.fancy_getopt',
   'C:\\Users\\Faheem '
   'Dev\\Desktop\\Git\\basicEncoder\\.venv\\Lib\\site-packages\\setuptools\\_distutils\\fancy_getopt.py',
   'PYMODULE'),
  ('setuptools._distutils.file_util',
   'C:\\Users\\Faheem '
   'Dev\\Desktop\\Git\\basicEncoder\\.venv\\Lib\\site-packages\\setuptools\\_distutils\\file_util.py',
   'PYMODULE'),
  ('setuptools._distutils.filelist',
   'C:\\Users\\Faheem '
   'Dev\\Desktop\\Git\\basicEncoder\\.venv\\Lib\\site-packages\\setuptools\\_distutils\\filelist.py',
   'PYMODULE'),
  ('setuptools._distutils.log',
   'C:\\Users\\Faheem '
   'Dev\\Desktop\\Git\\basicEncoder\\.venv\\Lib\\site-packages\\setuptools\\_distutils\\log.py',
   'PYMODULE'),
  ('setuptools._distutils.msvc9compiler',
   'C:\\Users\\Faheem '
   'Dev\\Desktop\\Git\\basicEncoder\\.venv\\Lib\\site-packages\\setuptools\\_distutils\\msvc9compiler.py',
   'PYMODULE'),
  ('setuptools._distutils.msvccompiler',
   'C:\\Users\\Faheem '
   'Dev\\Desktop\\Git\\basicEncoder\\.venv\\Lib\\site-packages\\setuptools\\_distutils\\msvccompiler.py',
   'PYMODULE'),
  ('setuptools._distutils.py38compat',
   'C:\\Users\\Faheem '
   'Dev\\Desktop\\Git\\basicEncoder\\.venv\\Lib\\site-packages\\setuptools\\_distutils\\py38compat.py',
   'PYMODULE'),
  ('setuptools._distutils.py39compat',
   'C:\\Users\\Faheem '
   'Dev\\Desktop\\Git\\basicEncoder\\.venv\\Lib\\site-packages\\setuptools\\_distutils\\py39compat.py',
   'PYMODULE'),
  ('setuptools._distutils.spawn',
   'C:\\Users\\Faheem '
   'Dev\\Desktop\\Git\\basicEncoder\\.venv\\Lib\\site-packages\\setuptools\\_distutils\\spawn.py',
   'PYMODULE'),
  ('setuptools._distutils.sysconfig',
   'C:\\Users\\Faheem '
   'Dev\\Desktop\\Git\\basicEncoder\\.venv\\Lib\\site-packages\\setuptools\\_distutils\\sysconfig.py',
   'PYMODULE'),
  ('setuptools._distutils.text_file',
   'C:\\Users\\Faheem '
   'Dev\\Desktop\\Git\\basicEncoder\\.venv\\Lib\\site-packages\\setuptools\\_distutils\\text_file.py',
   'PYMODULE'),
  ('setuptools._distutils.unixccompiler',
   'C:\\Users\\Faheem '
   'Dev\\Desktop\\Git\\basicEncoder\\.venv\\Lib\\site-packages\\setuptools\\_distutils\\unixccompiler.py',
   'PYMODULE'),
  ('setuptools._distutils.util',
   'C:\\Users\\Faheem '
   'Dev\\Desktop\\Git\\basicEncoder\\.venv\\Lib\\site-packages\\setuptools\\_distutils\\util.py',
   'PYMODULE'),
  ('setuptools._distutils.version',
   'C:\\Users\\Faheem '
   'Dev\\Desktop\\Git\\basicEncoder\\.venv\\Lib\\site-packages\\setuptools\\_distutils\\version.py',
   'PYMODULE'),
  ('setuptools._distutils.versionpredicate',
   'C:\\Users\\Faheem '
   'Dev\\Desktop\\Git\\basicEncoder\\.venv\\Lib\\site-packages\\setuptools\\_distutils\\versionpredicate.py',
   'PYMODULE'),
  ('setuptools._entry_points',
   'C:\\Users\\Faheem '
   'Dev\\Desktop\\Git\\basicEncoder\\.venv\\Lib\\site-packages\\setuptools\\_entry_points.py',
   'PYMODULE'),
  ('setuptools._imp',
   'C:\\Users\\Faheem '
   'Dev\\Desktop\\Git\\basicEncoder\\.venv\\Lib\\site-packages\\setuptools\\_imp.py',
   'PYMODULE'),
  ('setuptools._importlib',
   'C:\\Users\\Faheem '
   'Dev\\Desktop\\Git\\basicEncoder\\.venv\\Lib\\site-packages\\setuptools\\_importlib.py',
   'PYMODULE'),
  ('setuptools._itertools',
   'C:\\Users\\Faheem '
   'Dev\\Desktop\\Git\\basicEncoder\\.venv\\Lib\\site-packages\\setuptools\\_itertools.py',
   'PYMODULE'),
  ('setuptools._normalization',
   'C:\\Users\\Faheem '
   'Dev\\Desktop\\Git\\basicEncoder\\.venv\\Lib\\site-packages\\setuptools\\_normalization.py',
   'PYMODULE'),
  ('setuptools._path',
   'C:\\Users\\Faheem '
   'Dev\\Desktop\\Git\\basicEncoder\\.venv\\Lib\\site-packages\\setuptools\\_path.py',
   'PYMODULE'),
  ('setuptools._reqs',
   'C:\\Users\\Faheem '
   'Dev\\Desktop\\Git\\basicEncoder\\.venv\\Lib\\site-packages\\setuptools\\_reqs.py',
   'PYMODULE'),
  ('setuptools._vendor',
   'C:\\Users\\Faheem '
   'Dev\\Desktop\\Git\\basicEncoder\\.venv\\Lib\\site-packages\\setuptools\\_vendor\\__init__.py',
   'PYMODULE'),
  ('setuptools._vendor.importlib_metadata',
   'C:\\Users\\Faheem '
   'Dev\\Desktop\\Git\\basicEncoder\\.venv\\Lib\\site-packages\\setuptools\\_vendor\\importlib_metadata\\__init__.py',
   'PYMODULE'),
  ('setuptools._vendor.importlib_metadata._adapters',
   'C:\\Users\\Faheem '
   'Dev\\Desktop\\Git\\basicEncoder\\.venv\\Lib\\site-packages\\setuptools\\_vendor\\importlib_metadata\\_adapters.py',
   'PYMODULE'),
  ('setuptools._vendor.importlib_metadata._collections',
   'C:\\Users\\Faheem '
   'Dev\\Desktop\\Git\\basicEncoder\\.venv\\Lib\\site-packages\\setuptools\\_vendor\\importlib_metadata\\_collections.py',
   'PYMODULE'),
  ('setuptools._vendor.importlib_metadata._compat',
   'C:\\Users\\Faheem '
   'Dev\\Desktop\\Git\\basicEncoder\\.venv\\Lib\\site-packages\\setuptools\\_vendor\\importlib_metadata\\_compat.py',
   'PYMODULE'),
  ('setuptools._vendor.importlib_metadata._functools',
   'C:\\Users\\Faheem '
   'Dev\\Desktop\\Git\\basicEncoder\\.venv\\Lib\\site-packages\\setuptools\\_vendor\\importlib_metadata\\_functools.py',
   'PYMODULE'),
  ('setuptools._vendor.importlib_metadata._itertools',
   'C:\\Users\\Faheem '
   'Dev\\Desktop\\Git\\basicEncoder\\.venv\\Lib\\site-packages\\setuptools\\_vendor\\importlib_metadata\\_itertools.py',
   'PYMODULE'),
  ('setuptools._vendor.importlib_metadata._meta',
   'C:\\Users\\Faheem '
   'Dev\\Desktop\\Git\\basicEncoder\\.venv\\Lib\\site-packages\\setuptools\\_vendor\\importlib_metadata\\_meta.py',
   'PYMODULE'),
  ('setuptools._vendor.importlib_metadata._py39compat',
   'C:\\Users\\Faheem '
   'Dev\\Desktop\\Git\\basicEncoder\\.venv\\Lib\\site-packages\\setuptools\\_vendor\\importlib_metadata\\_py39compat.py',
   'PYMODULE'),
  ('setuptools._vendor.importlib_metadata._text',
   'C:\\Users\\Faheem '
   'Dev\\Desktop\\Git\\basicEncoder\\.venv\\Lib\\site-packages\\setuptools\\_vendor\\importlib_metadata\\_text.py',
   'PYMODULE'),
  ('setuptools._vendor.importlib_resources',
   'C:\\Users\\Faheem '
   'Dev\\Desktop\\Git\\basicEncoder\\.venv\\Lib\\site-packages\\setuptools\\_vendor\\importlib_resources\\__init__.py',
   'PYMODULE'),
  ('setuptools._vendor.importlib_resources._adapters',
   'C:\\Users\\Faheem '
   'Dev\\Desktop\\Git\\basicEncoder\\.venv\\Lib\\site-packages\\setuptools\\_vendor\\importlib_resources\\_adapters.py',
   'PYMODULE'),
  ('setuptools._vendor.importlib_resources._common',
   'C:\\Users\\Faheem '
   'Dev\\Desktop\\Git\\basicEncoder\\.venv\\Lib\\site-packages\\setuptools\\_vendor\\importlib_resources\\_common.py',
   'PYMODULE'),
  ('setuptools._vendor.importlib_resources._compat',
   'C:\\Users\\Faheem '
   'Dev\\Desktop\\Git\\basicEncoder\\.venv\\Lib\\site-packages\\setuptools\\_vendor\\importlib_resources\\_compat.py',
   'PYMODULE'),
  ('setuptools._vendor.importlib_resources._itertools',
   'C:\\Users\\Faheem '
   'Dev\\Desktop\\Git\\basicEncoder\\.venv\\Lib\\site-packages\\setuptools\\_vendor\\importlib_resources\\_itertools.py',
   'PYMODULE'),
  ('setuptools._vendor.importlib_resources._legacy',
   'C:\\Users\\Faheem '
   'Dev\\Desktop\\Git\\basicEncoder\\.venv\\Lib\\site-packages\\setuptools\\_vendor\\importlib_resources\\_legacy.py',
   'PYMODULE'),
  ('setuptools._vendor.importlib_resources.abc',
   'C:\\Users\\Faheem '
   'Dev\\Desktop\\Git\\basicEncoder\\.venv\\Lib\\site-packages\\setuptools\\_vendor\\importlib_resources\\abc.py',
   'PYMODULE'),
  ('setuptools._vendor.importlib_resources.readers',
   'C:\\Users\\Faheem '
   'Dev\\Desktop\\Git\\basicEncoder\\.venv\\Lib\\site-packages\\setuptools\\_vendor\\importlib_resources\\readers.py',
   'PYMODULE'),
  ('setuptools._vendor.importlib_resources.simple',
   'C:\\Users\\Faheem '
   'Dev\\Desktop\\Git\\basicEncoder\\.venv\\Lib\\site-packages\\setuptools\\_vendor\\importlib_resources\\simple.py',
   'PYMODULE'),
  ('setuptools._vendor.jaraco',
   'C:\\Users\\Faheem '
   'Dev\\Desktop\\Git\\basicEncoder\\.venv\\Lib\\site-packages\\setuptools\\_vendor\\jaraco\\__init__.py',
   'PYMODULE'),
  ('setuptools._vendor.jaraco.context',
   'C:\\Users\\Faheem '
   'Dev\\Desktop\\Git\\basicEncoder\\.venv\\Lib\\site-packages\\setuptools\\_vendor\\jaraco\\context.py',
   'PYMODULE'),
  ('setuptools._vendor.jaraco.functools',
   'C:\\Users\\Faheem '
   'Dev\\Desktop\\Git\\basicEncoder\\.venv\\Lib\\site-packages\\setuptools\\_vendor\\jaraco\\functools.py',
   'PYMODULE'),
  ('setuptools._vendor.jaraco.text',
   'C:\\Users\\Faheem '
   'Dev\\Desktop\\Git\\basicEncoder\\.venv\\Lib\\site-packages\\setuptools\\_vendor\\jaraco\\text\\__init__.py',
   'PYMODULE'),
  ('setuptools._vendor.more_itertools',
   'C:\\Users\\Faheem '
   'Dev\\Desktop\\Git\\basicEncoder\\.venv\\Lib\\site-packages\\setuptools\\_vendor\\more_itertools\\__init__.py',
   'PYMODULE'),
  ('setuptools._vendor.more_itertools.more',
   'C:\\Users\\Faheem '
   'Dev\\Desktop\\Git\\basicEncoder\\.venv\\Lib\\site-packages\\setuptools\\_vendor\\more_itertools\\more.py',
   'PYMODULE'),
  ('setuptools._vendor.more_itertools.recipes',
   'C:\\Users\\Faheem '
   'Dev\\Desktop\\Git\\basicEncoder\\.venv\\Lib\\site-packages\\setuptools\\_vendor\\more_itertools\\recipes.py',
   'PYMODULE'),
  ('setuptools._vendor.ordered_set',
   'C:\\Users\\Faheem '
   'Dev\\Desktop\\Git\\basicEncoder\\.venv\\Lib\\site-packages\\setuptools\\_vendor\\ordered_set.py',
   'PYMODULE'),
  ('setuptools._vendor.packaging',
   'C:\\Users\\Faheem '
   'Dev\\Desktop\\Git\\basicEncoder\\.venv\\Lib\\site-packages\\setuptools\\_vendor\\packaging\\__init__.py',
   'PYMODULE'),
  ('setuptools._vendor.packaging._elffile',
   'C:\\Users\\Faheem '
   'Dev\\Desktop\\Git\\basicEncoder\\.venv\\Lib\\site-packages\\setuptools\\_vendor\\packaging\\_elffile.py',
   'PYMODULE'),
  ('setuptools._vendor.packaging._manylinux',
   'C:\\Users\\Faheem '
   'Dev\\Desktop\\Git\\basicEncoder\\.venv\\Lib\\site-packages\\setuptools\\_vendor\\packaging\\_manylinux.py',
   'PYMODULE'),
  ('setuptools._vendor.packaging._musllinux',
   'C:\\Users\\Faheem '
   'Dev\\Desktop\\Git\\basicEncoder\\.venv\\Lib\\site-packages\\setuptools\\_vendor\\packaging\\_musllinux.py',
   'PYMODULE'),
  ('setuptools._vendor.packaging._parser',
   'C:\\Users\\Faheem '
   'Dev\\Desktop\\Git\\basicEncoder\\.venv\\Lib\\site-packages\\setuptools\\_vendor\\packaging\\_parser.py',
   'PYMODULE'),
  ('setuptools._vendor.packaging._structures',
   'C:\\Users\\Faheem '
   'Dev\\Desktop\\Git\\basicEncoder\\.venv\\Lib\\site-packages\\setuptools\\_vendor\\packaging\\_structures.py',
   'PYMODULE'),
  ('setuptools._vendor.packaging._tokenizer',
   'C:\\Users\\Faheem '
   'Dev\\Desktop\\Git\\basicEncoder\\.venv\\Lib\\site-packages\\setuptools\\_vendor\\packaging\\_tokenizer.py',
   'PYMODULE'),
  ('setuptools._vendor.packaging.markers',
   'C:\\Users\\Faheem '
   'Dev\\Desktop\\Git\\basicEncoder\\.venv\\Lib\\site-packages\\setuptools\\_vendor\\packaging\\markers.py',
   'PYMODULE'),
  ('setuptools._vendor.packaging.metadata',
   'C:\\Users\\Faheem '
   'Dev\\Desktop\\Git\\basicEncoder\\.venv\\Lib\\site-packages\\setuptools\\_vendor\\packaging\\metadata.py',
   'PYMODULE'),
  ('setuptools._vendor.packaging.requirements',
   'C:\\Users\\Faheem '
   'Dev\\Desktop\\Git\\basicEncoder\\.venv\\Lib\\site-packages\\setuptools\\_vendor\\packaging\\requirements.py',
   'PYMODULE'),
  ('setuptools._vendor.packaging.specifiers',
   'C:\\Users\\Faheem '
   'Dev\\Desktop\\Git\\basicEncoder\\.venv\\Lib\\site-packages\\setuptools\\_vendor\\packaging\\specifiers.py',
   'PYMODULE'),
  ('setuptools._vendor.packaging.tags',
   'C:\\Users\\Faheem '
   'Dev\\Desktop\\Git\\basicEncoder\\.venv\\Lib\\site-packages\\setuptools\\_vendor\\packaging\\tags.py',
   'PYMODULE'),
  ('setuptools._vendor.packaging.utils',
   'C:\\Users\\Faheem '
   'Dev\\Desktop\\Git\\basicEncoder\\.venv\\Lib\\site-packages\\setuptools\\_vendor\\packaging\\utils.py',
   'PYMODULE'),
  ('setuptools._vendor.packaging.version',
   'C:\\Users\\Faheem '
   'Dev\\Desktop\\Git\\basicEncoder\\.venv\\Lib\\site-packages\\setuptools\\_vendor\\packaging\\version.py',
   'PYMODULE'),
  ('setuptools._vendor.tomli',
   'C:\\Users\\Faheem '
   'Dev\\Desktop\\Git\\basicEncoder\\.venv\\Lib\\site-packages\\setuptools\\_vendor\\tomli\\__init__.py',
   'PYMODULE'),
  ('setuptools._vendor.tomli._parser',
   'C:\\Users\\Faheem '
   'Dev\\Desktop\\Git\\basicEncoder\\.venv\\Lib\\site-packages\\setuptools\\_vendor\\tomli\\_parser.py',
   'PYMODULE'),
  ('setuptools._vendor.tomli._re',
   'C:\\Users\\Faheem '
   'Dev\\Desktop\\Git\\basicEncoder\\.venv\\Lib\\site-packages\\setuptools\\_vendor\\tomli\\_re.py',
   'PYMODULE'),
  ('setuptools._vendor.tomli._types',
   'C:\\Users\\Faheem '
   'Dev\\Desktop\\Git\\basicEncoder\\.venv\\Lib\\site-packages\\setuptools\\_vendor\\tomli\\_types.py',
   'PYMODULE'),
  ('setuptools._vendor.typing_extensions',
   'C:\\Users\\Faheem '
   'Dev\\Desktop\\Git\\basicEncoder\\.venv\\Lib\\site-packages\\setuptools\\_vendor\\typing_extensions.py',
   'PYMODULE'),
  ('setuptools._vendor.zipp',
   'C:\\Users\\Faheem '
   'Dev\\Desktop\\Git\\basicEncoder\\.venv\\Lib\\site-packages\\setuptools\\_vendor\\zipp.py',
   'PYMODULE'),
  ('setuptools.archive_util',
   'C:\\Users\\Faheem '
   'Dev\\Desktop\\Git\\basicEncoder\\.venv\\Lib\\site-packages\\setuptools\\archive_util.py',
   'PYMODULE'),
  ('setuptools.command',
   'C:\\Users\\Faheem '
   'Dev\\Desktop\\Git\\basicEncoder\\.venv\\Lib\\site-packages\\setuptools\\command\\__init__.py',
   'PYMODULE'),
  ('setuptools.command._requirestxt',
   'C:\\Users\\Faheem '
   'Dev\\Desktop\\Git\\basicEncoder\\.venv\\Lib\\site-packages\\setuptools\\command\\_requirestxt.py',
   'PYMODULE'),
  ('setuptools.command.bdist_egg',
   'C:\\Users\\Faheem '
   'Dev\\Desktop\\Git\\basicEncoder\\.venv\\Lib\\site-packages\\setuptools\\command\\bdist_egg.py',
   'PYMODULE'),
  ('setuptools.command.build',
   'C:\\Users\\Faheem '
   'Dev\\Desktop\\Git\\basicEncoder\\.venv\\Lib\\site-packages\\setuptools\\command\\build.py',
   'PYMODULE'),
  ('setuptools.command.egg_info',
   'C:\\Users\\Faheem '
   'Dev\\Desktop\\Git\\basicEncoder\\.venv\\Lib\\site-packages\\setuptools\\command\\egg_info.py',
   'PYMODULE'),
  ('setuptools.command.sdist',
   'C:\\Users\\Faheem '
   'Dev\\Desktop\\Git\\basicEncoder\\.venv\\Lib\\site-packages\\setuptools\\command\\sdist.py',
   'PYMODULE'),
  ('setuptools.command.setopt',
   'C:\\Users\\Faheem '
   'Dev\\Desktop\\Git\\basicEncoder\\.venv\\Lib\\site-packages\\setuptools\\command\\setopt.py',
   'PYMODULE'),
  ('setuptools.config',
   'C:\\Users\\Faheem '
   'Dev\\Desktop\\Git\\basicEncoder\\.venv\\Lib\\site-packages\\setuptools\\config\\__init__.py',
   'PYMODULE'),
  ('setuptools.config._apply_pyprojecttoml',
   'C:\\Users\\Faheem '
   'Dev\\Desktop\\Git\\basicEncoder\\.venv\\Lib\\site-packages\\setuptools\\config\\_apply_pyprojecttoml.py',
   'PYMODULE'),
  ('setuptools.config._validate_pyproject',
   'C:\\Users\\Faheem '
   'Dev\\Desktop\\Git\\basicEncoder\\.venv\\Lib\\site-packages\\setuptools\\config\\_validate_pyproject\\__init__.py',
   'PYMODULE'),
  ('setuptools.config._validate_pyproject.error_reporting',
   'C:\\Users\\Faheem '
   'Dev\\Desktop\\Git\\basicEncoder\\.venv\\Lib\\site-packages\\setuptools\\config\\_validate_pyproject\\error_reporting.py',
   'PYMODULE'),
  ('setuptools.config._validate_pyproject.extra_validations',
   'C:\\Users\\Faheem '
   'Dev\\Desktop\\Git\\basicEncoder\\.venv\\Lib\\site-packages\\setuptools\\config\\_validate_pyproject\\extra_validations.py',
   'PYMODULE'),
  ('setuptools.config._validate_pyproject.fastjsonschema_exceptions',
   'C:\\Users\\Faheem '
   'Dev\\Desktop\\Git\\basicEncoder\\.venv\\Lib\\site-packages\\setuptools\\config\\_validate_pyproject\\fastjsonschema_exceptions.py',
   'PYMODULE'),
  ('setuptools.config._validate_pyproject.fastjsonschema_validations',
   'C:\\Users\\Faheem '
   'Dev\\Desktop\\Git\\basicEncoder\\.venv\\Lib\\site-packages\\setuptools\\config\\_validate_pyproject\\fastjsonschema_validations.py',
   'PYMODULE'),
  ('setuptools.config._validate_pyproject.formats',
   'C:\\Users\\Faheem '
   'Dev\\Desktop\\Git\\basicEncoder\\.venv\\Lib\\site-packages\\setuptools\\config\\_validate_pyproject\\formats.py',
   'PYMODULE'),
  ('setuptools.config.expand',
   'C:\\Users\\Faheem '
   'Dev\\Desktop\\Git\\basicEncoder\\.venv\\Lib\\site-packages\\setuptools\\config\\expand.py',
   'PYMODULE'),
  ('setuptools.config.pyprojecttoml',
   'C:\\Users\\Faheem '
   'Dev\\Desktop\\Git\\basicEncoder\\.venv\\Lib\\site-packages\\setuptools\\config\\pyprojecttoml.py',
   'PYMODULE'),
  ('setuptools.config.setupcfg',
   'C:\\Users\\Faheem '
   'Dev\\Desktop\\Git\\basicEncoder\\.venv\\Lib\\site-packages\\setuptools\\config\\setupcfg.py',
   'PYMODULE'),
  ('setuptools.depends',
   'C:\\Users\\Faheem '
   'Dev\\Desktop\\Git\\basicEncoder\\.venv\\Lib\\site-packages\\setuptools\\depends.py',
   'PYMODULE'),
  ('setuptools.discovery',
   'C:\\Users\\Faheem '
   'Dev\\Desktop\\Git\\basicEncoder\\.venv\\Lib\\site-packages\\setuptools\\discovery.py',
   'PYMODULE'),
  ('setuptools.dist',
   'C:\\Users\\Faheem '
   'Dev\\Desktop\\Git\\basicEncoder\\.venv\\Lib\\site-packages\\setuptools\\dist.py',
   'PYMODULE'),
  ('setuptools.errors',
   'C:\\Users\\Faheem '
   'Dev\\Desktop\\Git\\basicEncoder\\.venv\\Lib\\site-packages\\setuptools\\errors.py',
   'PYMODULE'),
  ('setuptools.extension',
   'C:\\Users\\Faheem '
   'Dev\\Desktop\\Git\\basicEncoder\\.venv\\Lib\\site-packages\\setuptools\\extension.py',
   'PYMODULE'),
  ('setuptools.extern',
   'C:\\Users\\Faheem '
   'Dev\\Desktop\\Git\\basicEncoder\\.venv\\Lib\\site-packages\\setuptools\\extern\\__init__.py',
   'PYMODULE'),
  ('setuptools.glob',
   'C:\\Users\\Faheem '
   'Dev\\Desktop\\Git\\basicEncoder\\.venv\\Lib\\site-packages\\setuptools\\glob.py',
   'PYMODULE'),
  ('setuptools.installer',
   'C:\\Users\\Faheem '
   'Dev\\Desktop\\Git\\basicEncoder\\.venv\\Lib\\site-packages\\setuptools\\installer.py',
   'PYMODULE'),
  ('setuptools.logging',
   'C:\\Users\\Faheem '
   'Dev\\Desktop\\Git\\basicEncoder\\.venv\\Lib\\site-packages\\setuptools\\logging.py',
   'PYMODULE'),
  ('setuptools.monkey',
   'C:\\Users\\Faheem '
   'Dev\\Desktop\\Git\\basicEncoder\\.venv\\Lib\\site-packages\\setuptools\\monkey.py',
   'PYMODULE'),
  ('setuptools.msvc',
   'C:\\Users\\Faheem '
   'Dev\\Desktop\\Git\\basicEncoder\\.venv\\Lib\\site-packages\\setuptools\\msvc.py',
   'PYMODULE'),
  ('setuptools.unicode_utils',
   'C:\\Users\\Faheem '
   'Dev\\Desktop\\Git\\basicEncoder\\.venv\\Lib\\site-packages\\setuptools\\unicode_utils.py',
   'PYMODULE'),
  ('setuptools.version',
   'C:\\Users\\Faheem '
   'Dev\\Desktop\\Git\\basicEncoder\\.venv\\Lib\\site-packages\\setuptools\\version.py',
   'PYMODULE'),
  ('setuptools.warnings',
   'C:\\Users\\Faheem '
   'Dev\\Desktop\\Git\\basicEncoder\\.venv\\Lib\\site-packages\\setuptools\\warnings.py',
   'PYMODULE'),
  ('setuptools.wheel',
   'C:\\Users\\Faheem '
   'Dev\\Desktop\\Git\\basicEncoder\\.venv\\Lib\\site-packages\\setuptools\\wheel.py',
   'PYMODULE'),
  ('setuptools.windows_support',
   'C:\\Users\\Faheem '
   'Dev\\Desktop\\Git\\basicEncoder\\.venv\\Lib\\site-packages\\setuptools\\windows_support.py',
   'PYMODULE'),
  ('shlex',
   'C:\\Program '
   'Files\\WindowsApps\\PythonSoftwareFoundation.Python.3.12_3.12.1520.0_x64__qbz5n2kfra8p0\\Lib\\shlex.py',
   'PYMODULE'),
  ('shutil',
   'C:\\Program '
   'Files\\WindowsApps\\PythonSoftwareFoundation.Python.3.12_3.12.1520.0_x64__qbz5n2kfra8p0\\Lib\\shutil.py',
   'PYMODULE'),
  ('signal',
   'C:\\Program '
   'Files\\WindowsApps\\PythonSoftwareFoundation.Python.3.12_3.12.1520.0_x64__qbz5n2kfra8p0\\Lib\\signal.py',
   'PYMODULE'),
  ('site',
   'C:\\Program '
   'Files\\WindowsApps\\PythonSoftwareFoundation.Python.3.12_3.12.1520.0_x64__qbz5n2kfra8p0\\Lib\\site.py',
   'PYMODULE'),
  ('socket',
   'C:\\Program '
   'Files\\WindowsApps\\PythonSoftwareFoundation.Python.3.12_3.12.1520.0_x64__qbz5n2kfra8p0\\Lib\\socket.py',
   'PYMODULE'),
  ('socketserver',
   'C:\\Program '
   'Files\\WindowsApps\\PythonSoftwareFoundation.Python.3.12_3.12.1520.0_x64__qbz5n2kfra8p0\\Lib\\socketserver.py',
   'PYMODULE'),
  ('ssl',
   'C:\\Program '
   'Files\\WindowsApps\\PythonSoftwareFoundation.Python.3.12_3.12.1520.0_x64__qbz5n2kfra8p0\\Lib\\ssl.py',
   'PYMODULE'),
  ('statistics',
   'C:\\Program '
   'Files\\WindowsApps\\PythonSoftwareFoundation.Python.3.12_3.12.1520.0_x64__qbz5n2kfra8p0\\Lib\\statistics.py',
   'PYMODULE'),
  ('string',
   'C:\\Program '
   'Files\\WindowsApps\\PythonSoftwareFoundation.Python.3.12_3.12.1520.0_x64__qbz5n2kfra8p0\\Lib\\string.py',
   'PYMODULE'),
  ('stringprep',
   'C:\\Program '
   'Files\\WindowsApps\\PythonSoftwareFoundation.Python.3.12_3.12.1520.0_x64__qbz5n2kfra8p0\\Lib\\stringprep.py',
   'PYMODULE'),
  ('subprocess',
   'C:\\Program '
   'Files\\WindowsApps\\PythonSoftwareFoundation.Python.3.12_3.12.1520.0_x64__qbz5n2kfra8p0\\Lib\\subprocess.py',
   'PYMODULE'),
  ('sysconfig',
   'C:\\Program '
   'Files\\WindowsApps\\PythonSoftwareFoundation.Python.3.12_3.12.1520.0_x64__qbz5n2kfra8p0\\Lib\\sysconfig.py',
   'PYMODULE'),
  ('tarfile',
   'C:\\Program '
   'Files\\WindowsApps\\PythonSoftwareFoundation.Python.3.12_3.12.1520.0_x64__qbz5n2kfra8p0\\Lib\\tarfile.py',
   'PYMODULE'),
  ('tempfile',
   'C:\\Program '
   'Files\\WindowsApps\\PythonSoftwareFoundation.Python.3.12_3.12.1520.0_x64__qbz5n2kfra8p0\\Lib\\tempfile.py',
   'PYMODULE'),
  ('textwrap',
   'C:\\Program '
   'Files\\WindowsApps\\PythonSoftwareFoundation.Python.3.12_3.12.1520.0_x64__qbz5n2kfra8p0\\Lib\\textwrap.py',
   'PYMODULE'),
  ('threading',
   'C:\\Program '
   'Files\\WindowsApps\\PythonSoftwareFoundation.Python.3.12_3.12.1520.0_x64__qbz5n2kfra8p0\\Lib\\threading.py',
   'PYMODULE'),
  ('token',
   'C:\\Program '
   'Files\\WindowsApps\\PythonSoftwareFoundation.Python.3.12_3.12.1520.0_x64__qbz5n2kfra8p0\\Lib\\token.py',
   'PYMODULE'),
  ('tokenize',
   'C:\\Program '
   'Files\\WindowsApps\\PythonSoftwareFoundation.Python.3.12_3.12.1520.0_x64__qbz5n2kfra8p0\\Lib\\tokenize.py',
   'PYMODULE'),
  ('tracemalloc',
   'C:\\Program '
   'Files\\WindowsApps\\PythonSoftwareFoundation.Python.3.12_3.12.1520.0_x64__qbz5n2kfra8p0\\Lib\\tracemalloc.py',
   'PYMODULE'),
  ('tty',
   'C:\\Program '
   'Files\\WindowsApps\\PythonSoftwareFoundation.Python.3.12_3.12.1520.0_x64__qbz5n2kfra8p0\\Lib\\tty.py',
   'PYMODULE'),
  ('typing',
   'C:\\Program '
   'Files\\WindowsApps\\PythonSoftwareFoundation.Python.3.12_3.12.1520.0_x64__qbz5n2kfra8p0\\Lib\\typing.py',
   'PYMODULE'),
  ('urllib',
   'C:\\Program '
   'Files\\WindowsApps\\PythonSoftwareFoundation.Python.3.12_3.12.1520.0_x64__qbz5n2kfra8p0\\Lib\\urllib\\__init__.py',
   'PYMODULE'),
  ('urllib.error',
   'C:\\Program '
   'Files\\WindowsApps\\PythonSoftwareFoundation.Python.3.12_3.12.1520.0_x64__qbz5n2kfra8p0\\Lib\\urllib\\error.py',
   'PYMODULE'),
  ('urllib.parse',
   'C:\\Program '
   'Files\\WindowsApps\\PythonSoftwareFoundation.Python.3.12_3.12.1520.0_x64__qbz5n2kfra8p0\\Lib\\urllib\\parse.py',
   'PYMODULE'),
  ('urllib.request',
   'C:\\Program '
   'Files\\WindowsApps\\PythonSoftwareFoundation.Python.3.12_3.12.1520.0_x64__qbz5n2kfra8p0\\Lib\\urllib\\request.py',
   'PYMODULE'),
  ('urllib.response',
   'C:\\Program '
   'Files\\WindowsApps\\PythonSoftwareFoundation.Python.3.12_3.12.1520.0_x64__qbz5n2kfra8p0\\Lib\\urllib\\response.py',
   'PYMODULE'),
  ('webbrowser',
   'C:\\Program '
   'Files\\WindowsApps\\PythonSoftwareFoundation.Python.3.12_3.12.1520.0_x64__qbz5n2kfra8p0\\Lib\\webbrowser.py',
   'PYMODULE'),
  ('xml',
   'C:\\Program '
   'Files\\WindowsApps\\PythonSoftwareFoundation.Python.3.12_3.12.1520.0_x64__qbz5n2kfra8p0\\Lib\\xml\\__init__.py',
   'PYMODULE'),
  ('xml.parsers',
   'C:\\Program '
   'Files\\WindowsApps\\PythonSoftwareFoundation.Python.3.12_3.12.1520.0_x64__qbz5n2kfra8p0\\Lib\\xml\\parsers\\__init__.py',
   'PYMODULE'),
  ('xml.parsers.expat',
   'C:\\Program '
   'Files\\WindowsApps\\PythonSoftwareFoundation.Python.3.12_3.12.1520.0_x64__qbz5n2kfra8p0\\Lib\\xml\\parsers\\expat.py',
   'PYMODULE'),
  ('xml.sax',
   'C:\\Program '
   'Files\\WindowsApps\\PythonSoftwareFoundation.Python.3.12_3.12.1520.0_x64__qbz5n2kfra8p0\\Lib\\xml\\sax\\__init__.py',
   'PYMODULE'),
  ('xml.sax._exceptions',
   'C:\\Program '
   'Files\\WindowsApps\\PythonSoftwareFoundation.Python.3.12_3.12.1520.0_x64__qbz5n2kfra8p0\\Lib\\xml\\sax\\_exceptions.py',
   'PYMODULE'),
  ('xml.sax.expatreader',
   'C:\\Program '
   'Files\\WindowsApps\\PythonSoftwareFoundation.Python.3.12_3.12.1520.0_x64__qbz5n2kfra8p0\\Lib\\xml\\sax\\expatreader.py',
   'PYMODULE'),
  ('xml.sax.handler',
   'C:\\Program '
   'Files\\WindowsApps\\PythonSoftwareFoundation.Python.3.12_3.12.1520.0_x64__qbz5n2kfra8p0\\Lib\\xml\\sax\\handler.py',
   'PYMODULE'),
  ('xml.sax.saxutils',
   'C:\\Program '
   'Files\\WindowsApps\\PythonSoftwareFoundation.Python.3.12_3.12.1520.0_x64__qbz5n2kfra8p0\\Lib\\xml\\sax\\saxutils.py',
   'PYMODULE'),
  ('xml.sax.xmlreader',
   'C:\\Program '
   'Files\\WindowsApps\\PythonSoftwareFoundation.Python.3.12_3.12.1520.0_x64__qbz5n2kfra8p0\\Lib\\xml\\sax\\xmlreader.py',
   'PYMODULE'),
  ('xmlrpc',
   'C:\\Program '
   'Files\\WindowsApps\\PythonSoftwareFoundation.Python.3.12_3.12.1520.0_x64__qbz5n2kfra8p0\\Lib\\xmlrpc\\__init__.py',
   'PYMODULE'),
  ('xmlrpc.client',
   'C:\\Program '
   'Files\\WindowsApps\\PythonSoftwareFoundation.Python.3.12_3.12.1520.0_x64__qbz5n2kfra8p0\\Lib\\xmlrpc\\client.py',
   'PYMODULE'),
  ('zipfile',
   'C:\\Program '
   'Files\\WindowsApps\\PythonSoftwareFoundation.Python.3.12_3.12.1520.0_x64__qbz5n2kfra8p0\\Lib\\zipfile\\__init__.py',
   'PYMODULE'),
  ('zipfile._path',
   'C:\\Program '
   'Files\\WindowsApps\\PythonSoftwareFoundation.Python.3.12_3.12.1520.0_x64__qbz5n2kfra8p0\\Lib\\zipfile\\_path\\__init__.py',
   'PYMODULE'),
  ('zipfile._path.glob',
   'C:\\Program '
   'Files\\WindowsApps\\PythonSoftwareFoundation.Python.3.12_3.12.1520.0_x64__qbz5n2kfra8p0\\Lib\\zipfile\\_path\\glob.py',
   'PYMODULE'),
  ('zipimport',
   'C:\\Program '
   'Files\\WindowsApps\\PythonSoftwareFoundation.Python.3.12_3.12.1520.0_x64__qbz5n2kfra8p0\\Lib\\zipimport.py',
   'PYMODULE')])
